(kicad_sch (version 20230121) (generator eeschema)

  (uuid 70ec858d-9e2c-4ce5-9cb6-c05c5aa2a458)

  (paper "A4")

  (title_block
    (title "Atari ST OPL cartridge")
    (date "2023-04-03")
    (rev "1")
    (company "Nokturnal")
    (comment 1 "(c)Paweł Góralski'2023")
  )

  (lib_symbols
    (symbol "AtariST:Atari_ST_Cartridge_Connector" (in_bom yes) (on_board yes)
      (property "Reference" "U" (at 1.27 52.07 0)
        (effects (font (size 1.27 1.27)))
      )
      (property "Value" "" (at 0 0 0)
        (effects (font (size 1.27 1.27)))
      )
      (property "Footprint" "" (at 0 0 0)
        (effects (font (size 1.27 1.27)) hide)
      )
      (property "Datasheet" "" (at 0 0 0)
        (effects (font (size 1.27 1.27)) hide)
      )
      (symbol "Atari_ST_Cartridge_Connector_0_1"
        (rectangle (start 0 50.8) (end 19.05 0)
          (stroke (width 0) (type default))
          (fill (type background))
        )
        (text "Atari ST cartridge connector" (at 10.16 -1.27 0)
          (effects (font (size 1.27 1.27)))
        )
      )
      (symbol "Atari_ST_Cartridge_Connector_1_1"
        (pin input line (at 21.59 49.53 180) (length 2.54)
          (name "+5VDC" (effects (font (size 1.27 1.27))))
          (number "1" (effects (font (size 1.27 1.27))))
        )
        (pin input line (at -2.54 39.37 0) (length 2.54)
          (name "D9" (effects (font (size 1.27 1.27))))
          (number "10" (effects (font (size 1.27 1.27))))
        )
        (pin input line (at 21.59 36.83 180) (length 2.54)
          (name "D6" (effects (font (size 1.27 1.27))))
          (number "11" (effects (font (size 1.27 1.27))))
        )
        (pin input line (at -2.54 36.83 0) (length 2.54)
          (name "D7" (effects (font (size 1.27 1.27))))
          (number "12" (effects (font (size 1.27 1.27))))
        )
        (pin input line (at 21.59 34.29 180) (length 2.54)
          (name "D4" (effects (font (size 1.27 1.27))))
          (number "13" (effects (font (size 1.27 1.27))))
        )
        (pin input line (at -2.54 34.29 0) (length 2.54)
          (name "D5" (effects (font (size 1.27 1.27))))
          (number "14" (effects (font (size 1.27 1.27))))
        )
        (pin input line (at 21.59 31.75 180) (length 2.54)
          (name "D2" (effects (font (size 1.27 1.27))))
          (number "15" (effects (font (size 1.27 1.27))))
        )
        (pin input line (at -2.54 31.75 0) (length 2.54)
          (name "D3" (effects (font (size 1.27 1.27))))
          (number "16" (effects (font (size 1.27 1.27))))
        )
        (pin input line (at 21.59 29.21 180) (length 2.54)
          (name "D0" (effects (font (size 1.27 1.27))))
          (number "17" (effects (font (size 1.27 1.27))))
        )
        (pin input line (at -2.54 29.21 0) (length 2.54)
          (name "D1" (effects (font (size 1.27 1.27))))
          (number "18" (effects (font (size 1.27 1.27))))
        )
        (pin input line (at 21.59 26.67 180) (length 2.54)
          (name "A13" (effects (font (size 1.27 1.27))))
          (number "19" (effects (font (size 1.27 1.27))))
        )
        (pin input line (at -2.54 49.53 0) (length 2.54)
          (name "+5VDC" (effects (font (size 1.27 1.27))))
          (number "2" (effects (font (size 1.27 1.27))))
        )
        (pin input line (at -2.54 26.67 0) (length 2.54)
          (name "A15" (effects (font (size 1.27 1.27))))
          (number "20" (effects (font (size 1.27 1.27))))
        )
        (pin input line (at 21.59 24.13 180) (length 2.54)
          (name "A8" (effects (font (size 1.27 1.27))))
          (number "21" (effects (font (size 1.27 1.27))))
        )
        (pin input line (at -2.54 24.13 0) (length 2.54)
          (name "A14" (effects (font (size 1.27 1.27))))
          (number "22" (effects (font (size 1.27 1.27))))
        )
        (pin input line (at 21.59 21.59 180) (length 2.54)
          (name "A7" (effects (font (size 1.27 1.27))))
          (number "23" (effects (font (size 1.27 1.27))))
        )
        (pin input line (at -2.54 21.59 0) (length 2.54)
          (name "A9" (effects (font (size 1.27 1.27))))
          (number "24" (effects (font (size 1.27 1.27))))
        )
        (pin input line (at 21.59 19.05 180) (length 2.54)
          (name "A6" (effects (font (size 1.27 1.27))))
          (number "25" (effects (font (size 1.27 1.27))))
        )
        (pin input line (at -2.54 19.05 0) (length 2.54)
          (name "A10" (effects (font (size 1.27 1.27))))
          (number "26" (effects (font (size 1.27 1.27))))
        )
        (pin input line (at 21.59 16.51 180) (length 2.54)
          (name "A5" (effects (font (size 1.27 1.27))))
          (number "27" (effects (font (size 1.27 1.27))))
        )
        (pin input line (at -2.54 16.51 0) (length 2.54)
          (name "A12" (effects (font (size 1.27 1.27))))
          (number "28" (effects (font (size 1.27 1.27))))
        )
        (pin input line (at 21.59 13.97 180) (length 2.54)
          (name "A11" (effects (font (size 1.27 1.27))))
          (number "29" (effects (font (size 1.27 1.27))))
        )
        (pin input line (at 21.59 46.99 180) (length 2.54)
          (name "D14" (effects (font (size 1.27 1.27))))
          (number "3" (effects (font (size 1.27 1.27))))
        )
        (pin input line (at -2.54 13.97 0) (length 2.54)
          (name "A4" (effects (font (size 1.27 1.27))))
          (number "30" (effects (font (size 1.27 1.27))))
        )
        (pin input line (at 21.59 11.43 180) (length 2.54)
          (name "ROM_Select_3" (effects (font (size 1.27 1.27))))
          (number "31" (effects (font (size 1.27 1.27))))
        )
        (pin input line (at -2.54 11.43 0) (length 2.54)
          (name "A3" (effects (font (size 1.27 1.27))))
          (number "32" (effects (font (size 1.27 1.27))))
        )
        (pin input line (at 21.59 8.89 180) (length 2.54)
          (name "ROM_Select_4" (effects (font (size 1.27 1.27))))
          (number "33" (effects (font (size 1.27 1.27))))
        )
        (pin input line (at -2.54 8.89 0) (length 2.54)
          (name "A2" (effects (font (size 1.27 1.27))))
          (number "34" (effects (font (size 1.27 1.27))))
        )
        (pin input line (at 21.59 6.35 180) (length 2.54)
          (name "/UDS" (effects (font (size 1.27 1.27))))
          (number "35" (effects (font (size 1.27 1.27))))
        )
        (pin input line (at -2.54 6.35 0) (length 2.54)
          (name "A1" (effects (font (size 1.27 1.27))))
          (number "36" (effects (font (size 1.27 1.27))))
        )
        (pin input line (at 21.59 3.81 180) (length 2.54)
          (name "/LDS" (effects (font (size 1.27 1.27))))
          (number "37" (effects (font (size 1.27 1.27))))
        )
        (pin input line (at -2.54 3.81 0) (length 2.54)
          (name "GND" (effects (font (size 1.27 1.27))))
          (number "38" (effects (font (size 1.27 1.27))))
        )
        (pin input line (at 21.59 1.27 180) (length 2.54)
          (name "GND" (effects (font (size 1.27 1.27))))
          (number "39" (effects (font (size 1.27 1.27))))
        )
        (pin input line (at -2.54 46.99 0) (length 2.54)
          (name "D15" (effects (font (size 1.27 1.27))))
          (number "4" (effects (font (size 1.27 1.27))))
        )
        (pin input line (at -2.54 1.27 0) (length 2.54)
          (name "GND" (effects (font (size 1.27 1.27))))
          (number "40" (effects (font (size 1.27 1.27))))
        )
        (pin input line (at 21.59 44.45 180) (length 2.54)
          (name "D12" (effects (font (size 1.27 1.27))))
          (number "5" (effects (font (size 1.27 1.27))))
        )
        (pin input line (at -2.54 44.45 0) (length 2.54)
          (name "D13" (effects (font (size 1.27 1.27))))
          (number "6" (effects (font (size 1.27 1.27))))
        )
        (pin input line (at 21.59 41.91 180) (length 2.54)
          (name "D10" (effects (font (size 1.27 1.27))))
          (number "7" (effects (font (size 1.27 1.27))))
        )
        (pin input line (at -2.54 41.91 0) (length 2.54)
          (name "D11" (effects (font (size 1.27 1.27))))
          (number "8" (effects (font (size 1.27 1.27))))
        )
        (pin input line (at 21.59 39.37 180) (length 2.54)
          (name "D8" (effects (font (size 1.27 1.27))))
          (number "9" (effects (font (size 1.27 1.27))))
        )
      )
    )
    (symbol "Device:Crystal" (pin_numbers hide) (pin_names (offset 1.016) hide) (in_bom yes) (on_board yes)
      (property "Reference" "Y" (at 0 3.81 0)
        (effects (font (size 1.27 1.27)))
      )
      (property "Value" "Crystal" (at 0 -3.81 0)
        (effects (font (size 1.27 1.27)))
      )
      (property "Footprint" "" (at 0 0 0)
        (effects (font (size 1.27 1.27)) hide)
      )
      (property "Datasheet" "~" (at 0 0 0)
        (effects (font (size 1.27 1.27)) hide)
      )
      (property "ki_keywords" "quartz ceramic resonator oscillator" (at 0 0 0)
        (effects (font (size 1.27 1.27)) hide)
      )
      (property "ki_description" "Two pin crystal" (at 0 0 0)
        (effects (font (size 1.27 1.27)) hide)
      )
      (property "ki_fp_filters" "Crystal*" (at 0 0 0)
        (effects (font (size 1.27 1.27)) hide)
      )
      (symbol "Crystal_0_1"
        (rectangle (start -1.143 2.54) (end 1.143 -2.54)
          (stroke (width 0.3048) (type default))
          (fill (type none))
        )
        (polyline
          (pts
            (xy -2.54 0)
            (xy -1.905 0)
          )
          (stroke (width 0) (type default))
          (fill (type none))
        )
        (polyline
          (pts
            (xy -1.905 -1.27)
            (xy -1.905 1.27)
          )
          (stroke (width 0.508) (type default))
          (fill (type none))
        )
        (polyline
          (pts
            (xy 1.905 -1.27)
            (xy 1.905 1.27)
          )
          (stroke (width 0.508) (type default))
          (fill (type none))
        )
        (polyline
          (pts
            (xy 2.54 0)
            (xy 1.905 0)
          )
          (stroke (width 0) (type default))
          (fill (type none))
        )
      )
      (symbol "Crystal_1_1"
        (pin passive line (at -3.81 0 0) (length 1.27)
          (name "1" (effects (font (size 1.27 1.27))))
          (number "1" (effects (font (size 1.27 1.27))))
        )
        (pin passive line (at 3.81 0 180) (length 1.27)
          (name "2" (effects (font (size 1.27 1.27))))
          (number "2" (effects (font (size 1.27 1.27))))
        )
      )
    )
    (symbol "YAC-512-M 16SOP_1" (in_bom yes) (on_board yes)
      (property "Reference" "U" (at -5.08 2.54 0)
        (effects (font (size 1.27 1.27)))
      )
      (property "Value" "YAC-512-M 16SOP" (at 0 12.7 0)
        (effects (font (size 1.27 1.27)))
      )
      (property "Footprint" "" (at -5.08 2.54 0)
        (effects (font (size 1.27 1.27)) hide)
      )
      (property "Datasheet" "" (at -5.08 2.54 0)
        (effects (font (size 1.27 1.27)) hide)
      )
      (symbol "YAC-512-M 16SOP_1_0_1"
        (rectangle (start -6.35 10.16) (end 6.35 -10.16)
          (stroke (width 0) (type default))
          (fill (type none))
        )
      )
      (symbol "YAC-512-M 16SOP_1_1_1"
        (pin power_in line (at -8.89 8.89 0) (length 2.54)
          (name "VDD" (effects (font (size 1.27 1.27))))
          (number "1" (effects (font (size 1.27 1.27))))
        )
        (pin output line (at 8.89 -6.35 180) (length 2.54)
          (name "CH1" (effects (font (size 1.27 1.27))))
          (number "10" (effects (font (size 1.27 1.27))))
        )
        (pin output line (at 8.89 -3.81 180) (length 2.54)
          (name "CH2" (effects (font (size 1.27 1.27))))
          (number "11" (effects (font (size 1.27 1.27))))
        )
        (pin input line (at 8.89 -1.27 180) (length 2.54)
          (name "SWIN" (effects (font (size 1.27 1.27))))
          (number "12" (effects (font (size 1.27 1.27))))
        )
        (pin output line (at 8.89 1.27 180) (length 2.54)
          (name "AOUT" (effects (font (size 1.27 1.27))))
          (number "13" (effects (font (size 1.27 1.27))))
        )
        (pin input line (at 8.89 3.81 180) (length 2.54)
          (name "MP" (effects (font (size 1.27 1.27))))
          (number "14" (effects (font (size 1.27 1.27))))
        )
        (pin input line (at 8.89 6.35 180) (length 2.54)
          (name "TST2" (effects (font (size 1.27 1.27))))
          (number "15" (effects (font (size 1.27 1.27))))
        )
        (pin input line (at 8.89 8.89 180) (length 2.54)
          (name "CV" (effects (font (size 1.27 1.27))))
          (number "16" (effects (font (size 1.27 1.27))))
        )
        (pin power_out line (at -8.89 6.35 0) (length 2.54)
          (name "VSS" (effects (font (size 1.27 1.27))))
          (number "2" (effects (font (size 1.27 1.27))))
        )
        (pin power_in line (at -8.89 3.81 0) (length 2.54)
          (name "VDD" (effects (font (size 1.27 1.27))))
          (number "3" (effects (font (size 1.27 1.27))))
        )
        (pin input line (at -8.89 1.27 0) (length 2.54)
          (name "DIN" (effects (font (size 1.27 1.27))))
          (number "4" (effects (font (size 1.27 1.27))))
        )
        (pin input clock (at -8.89 -1.27 0) (length 2.54)
          (name "CLK" (effects (font (size 1.27 1.27))))
          (number "5" (effects (font (size 1.27 1.27))))
        )
        (pin input line (at -8.89 -3.81 0) (length 2.54)
          (name "FSEL" (effects (font (size 1.27 1.27))))
          (number "6" (effects (font (size 1.27 1.27))))
        )
        (pin input line (at -8.89 -6.35 0) (length 2.54)
          (name "SMP2" (effects (font (size 1.27 1.27))))
          (number "7" (effects (font (size 1.27 1.27))))
        )
        (pin input line (at -8.89 -8.89 0) (length 2.54)
          (name "SMP1" (effects (font (size 1.27 1.27))))
          (number "8" (effects (font (size 1.27 1.27))))
        )
        (pin input line (at 8.89 -8.89 180) (length 2.54)
          (name "TST1" (effects (font (size 1.27 1.27))))
          (number "9" (effects (font (size 1.27 1.27))))
        )
      )
    )
    (symbol "YM_OPL:YM262-M 24SOP" (in_bom yes) (on_board yes)
      (property "Reference" "U" (at -5.08 -17.78 0)
        (effects (font (size 1.27 1.27)))
      )
      (property "Value" "YM262-M 24SOP" (at 0 16.51 0)
        (effects (font (size 1.27 1.27)))
      )
      (property "Footprint" "" (at -6.35 13.97 0)
        (effects (font (size 1.27 1.27)) hide)
      )
      (property "Datasheet" "" (at -6.35 13.97 0)
        (effects (font (size 1.27 1.27)) hide)
      )
      (symbol "YM262-M 24SOP_0_1"
        (rectangle (start -8.89 13.97) (end 10.16 -16.51)
          (stroke (width 0) (type default))
          (fill (type none))
        )
      )
      (symbol "YM262-M 24SOP_1_1"
        (pin input line (at 12.7 12.7 180) (length 2.54)
          (name "Master_clock" (effects (font (size 1.27 1.27))))
          (number "" (effects (font (size 1.27 1.27))))
        )
        (pin power_in line (at -11.43 12.7 0) (length 2.54)
          (name "VDD" (effects (font (size 1.27 1.27))))
          (number "1" (effects (font (size 1.27 1.27))))
        )
        (pin bidirectional line (at -11.43 -10.16 0) (length 2.54)
          (name "D0" (effects (font (size 1.27 1.27))))
          (number "10" (effects (font (size 1.27 1.27))))
        )
        (pin bidirectional line (at -11.43 -12.7 0) (length 2.54)
          (name "D1" (effects (font (size 1.27 1.27))))
          (number "11" (effects (font (size 1.27 1.27))))
        )
        (pin power_out line (at -11.43 -15.24 0) (length 2.54)
          (name "VSS" (effects (font (size 1.27 1.27))))
          (number "12" (effects (font (size 1.27 1.27))))
        )
        (pin bidirectional line (at 12.7 -15.24 180) (length 2.54)
          (name "D2" (effects (font (size 1.27 1.27))))
          (number "13" (effects (font (size 1.27 1.27))))
        )
        (pin bidirectional line (at 12.7 -12.7 180) (length 2.54)
          (name "D3" (effects (font (size 1.27 1.27))))
          (number "14" (effects (font (size 1.27 1.27))))
        )
        (pin bidirectional line (at 12.7 -10.16 180) (length 2.54)
          (name "D4" (effects (font (size 1.27 1.27))))
          (number "15" (effects (font (size 1.27 1.27))))
        )
        (pin bidirectional line (at 12.7 -7.62 180) (length 2.54)
          (name "D5" (effects (font (size 1.27 1.27))))
          (number "16" (effects (font (size 1.27 1.27))))
        )
        (pin bidirectional line (at 12.7 -5.08 180) (length 2.54)
          (name "D6" (effects (font (size 1.27 1.27))))
          (number "17" (effects (font (size 1.27 1.27))))
        )
        (pin bidirectional line (at 12.7 -2.54 180) (length 2.54)
          (name "D7" (effects (font (size 1.27 1.27))))
          (number "18" (effects (font (size 1.27 1.27))))
        )
        (pin output line (at 12.7 0 180) (length 2.54)
          (name "SMPBD" (effects (font (size 1.27 1.27))))
          (number "19" (effects (font (size 1.27 1.27))))
        )
        (pin output line (at -11.43 10.16 0) (length 2.54)
          (name "/IRQ" (effects (font (size 1.27 1.27))))
          (number "2" (effects (font (size 1.27 1.27))))
        )
        (pin output line (at 12.7 2.54 180) (length 2.54)
          (name "SMPAC" (effects (font (size 1.27 1.27))))
          (number "20" (effects (font (size 1.27 1.27))))
        )
        (pin output line (at 12.7 5.08 180) (length 2.54)
          (name "DOAB" (effects (font (size 1.27 1.27))))
          (number "21" (effects (font (size 1.27 1.27))))
        )
        (pin output line (at 12.7 7.62 180) (length 2.54)
          (name "DOCD" (effects (font (size 1.27 1.27))))
          (number "22" (effects (font (size 1.27 1.27))))
        )
        (pin output line (at 12.7 10.16 180) (length 2.54)
          (name "SY" (effects (font (size 1.27 1.27))))
          (number "23" (effects (font (size 1.27 1.27))))
        )
        (pin input line (at -11.43 7.62 0) (length 2.54)
          (name "/IC" (effects (font (size 1.27 1.27))))
          (number "3" (effects (font (size 1.27 1.27))))
        )
        (pin input line (at -11.43 5.08 0) (length 2.54)
          (name "A0" (effects (font (size 1.27 1.27))))
          (number "4" (effects (font (size 1.27 1.27))))
        )
        (pin input line (at -11.43 2.54 0) (length 2.54)
          (name "A1" (effects (font (size 1.27 1.27))))
          (number "5" (effects (font (size 1.27 1.27))))
        )
        (pin input line (at -11.43 0 0) (length 2.54)
          (name "/WR" (effects (font (size 1.27 1.27))))
          (number "6" (effects (font (size 1.27 1.27))))
        )
        (pin input line (at -11.43 -2.54 0) (length 2.54)
          (name "/RD" (effects (font (size 1.27 1.27))))
          (number "7" (effects (font (size 1.27 1.27))))
        )
        (pin input line (at -11.43 -5.08 0) (length 2.54)
          (name "/CS" (effects (font (size 1.27 1.27))))
          (number "8" (effects (font (size 1.27 1.27))))
        )
        (pin no_connect line (at -11.43 -7.62 0) (length 2.54)
          (name "TEST" (effects (font (size 1.27 1.27))))
          (number "9" (effects (font (size 1.27 1.27))))
        )
      )
    )
    (symbol "power:+5V" (power) (pin_names (offset 0)) (in_bom yes) (on_board yes)
      (property "Reference" "#PWR" (at 0 -3.81 0)
        (effects (font (size 1.27 1.27)) hide)
      )
      (property "Value" "+5V" (at 0 3.556 0)
        (effects (font (size 1.27 1.27)))
      )
      (property "Footprint" "" (at 0 0 0)
        (effects (font (size 1.27 1.27)) hide)
      )
      (property "Datasheet" "" (at 0 0 0)
        (effects (font (size 1.27 1.27)) hide)
      )
      (property "ki_keywords" "global power" (at 0 0 0)
        (effects (font (size 1.27 1.27)) hide)
      )
      (property "ki_description" "Power symbol creates a global label with name \"+5V\"" (at 0 0 0)
        (effects (font (size 1.27 1.27)) hide)
      )
      (symbol "+5V_0_1"
        (polyline
          (pts
            (xy -0.762 1.27)
            (xy 0 2.54)
          )
          (stroke (width 0) (type default))
          (fill (type none))
        )
        (polyline
          (pts
            (xy 0 0)
            (xy 0 2.54)
          )
          (stroke (width 0) (type default))
          (fill (type none))
        )
        (polyline
          (pts
            (xy 0 2.54)
            (xy 0.762 1.27)
          )
          (stroke (width 0) (type default))
          (fill (type none))
        )
      )
      (symbol "+5V_1_1"
        (pin power_in line (at 0 0 90) (length 0) hide
          (name "+5V" (effects (font (size 1.27 1.27))))
          (number "1" (effects (font (size 1.27 1.27))))
        )
      )
    )
    (symbol "power:GND" (power) (pin_names (offset 0)) (in_bom yes) (on_board yes)
      (property "Reference" "#PWR" (at 0 -6.35 0)
        (effects (font (size 1.27 1.27)) hide)
      )
      (property "Value" "GND" (at 0 -3.81 0)
        (effects (font (size 1.27 1.27)))
      )
      (property "Footprint" "" (at 0 0 0)
        (effects (font (size 1.27 1.27)) hide)
      )
      (property "Datasheet" "" (at 0 0 0)
        (effects (font (size 1.27 1.27)) hide)
      )
      (property "ki_keywords" "global power" (at 0 0 0)
        (effects (font (size 1.27 1.27)) hide)
      )
      (property "ki_description" "Power symbol creates a global label with name \"GND\" , ground" (at 0 0 0)
        (effects (font (size 1.27 1.27)) hide)
      )
      (symbol "GND_0_1"
        (polyline
          (pts
            (xy 0 0)
            (xy 0 -1.27)
            (xy 1.27 -1.27)
            (xy 0 -2.54)
            (xy -1.27 -1.27)
            (xy 0 -1.27)
          )
          (stroke (width 0) (type default))
          (fill (type none))
        )
      )
      (symbol "GND_1_1"
        (pin power_in line (at 0 0 270) (length 0) hide
          (name "GND" (effects (font (size 1.27 1.27))))
          (number "1" (effects (font (size 1.27 1.27))))
        )
      )
    )
  )

  (junction (at 240.03 92.71) (diameter 0) (color 0 0 0 0)
    (uuid 367966ae-0794-426b-89f8-6ed3d0c13c86)
  )
  (junction (at 130.81 87.63) (diameter 0) (color 0 0 0 0)
    (uuid 8118e6ef-6a3c-4887-888d-fe8bd4712b32)
  )
  (junction (at 240.03 96.52) (diameter 0) (color 0 0 0 0)
    (uuid ba03a31b-2bb7-4647-b455-f05d3c554e07)
  )

  (bus_entry (at 38.1 97.79) (size 2.54 2.54)
    (stroke (width 0) (type default))
    (uuid 10b7b0a3-dc52-4520-ae15-fad11f9a2342)
  )
  (bus_entry (at 38.1 101.6) (size 2.54 2.54)
    (stroke (width 0) (type default))
    (uuid 11f1e0b8-ce5f-4c71-a1b1-2fcdc827c0a9)
  )
  (bus_entry (at 267.97 20.32) (size -2.54 -2.54)
    (stroke (width 0) (type default))
    (uuid 2029d28a-e704-45c2-bcf8-986019e905cc)
  )
  (bus_entry (at 250.19 17.78) (size 2.54 2.54)
    (stroke (width 0) (type default))
    (uuid 2997d86b-89ee-4bca-a2cc-88c67aa2912f)
  )
  (bus_entry (at 38.1 93.98) (size 2.54 2.54)
    (stroke (width 0) (type default))
    (uuid 33dae8dd-41b4-4675-ac33-3ba37bccc96a)
  )
  (bus_entry (at 38.1 86.36) (size 2.54 2.54)
    (stroke (width 0) (type default))
    (uuid 3408adfb-82ca-435f-aa65-13fb06351704)
  )
  (bus_entry (at 275.59 20.32) (size -2.54 -2.54)
    (stroke (width 0) (type default))
    (uuid 4dd61bf5-ea88-4664-839b-f1d797aeed6d)
  )
  (bus_entry (at 38.1 74.93) (size 2.54 2.54)
    (stroke (width 0) (type default))
    (uuid 6951e37b-b1df-49be-bcd4-9f49509ee03c)
  )
  (bus_entry (at 260.35 20.32) (size -2.54 -2.54)
    (stroke (width 0) (type default))
    (uuid 7bd8a679-f6d9-4b53-87bc-2f7e6789c336)
  )
  (bus_entry (at 38.1 82.55) (size 2.54 2.54)
    (stroke (width 0) (type default))
    (uuid c0e0c642-82a8-4c0b-8b27-6c298827fd95)
  )
  (bus_entry (at 279.4 20.32) (size -2.54 -2.54)
    (stroke (width 0) (type default))
    (uuid c5950ca6-f044-4b78-b9d1-4aa24acf334a)
  )
  (bus_entry (at 38.1 78.74) (size 2.54 2.54)
    (stroke (width 0) (type default))
    (uuid e229326c-22e2-4955-aa15-8dd4c8deee3c)
  )
  (bus_entry (at 256.54 20.32) (size -2.54 -2.54)
    (stroke (width 0) (type default))
    (uuid e2e5fa70-f7cc-40e7-82ba-7f686488ef81)
  )
  (bus_entry (at 38.1 90.17) (size 2.54 2.54)
    (stroke (width 0) (type default))
    (uuid e685a0ef-5f5f-4d7b-862e-809361270744)
  )
  (bus_entry (at 264.16 20.32) (size -2.54 -2.54)
    (stroke (width 0) (type default))
    (uuid ec2749cd-2140-4c50-9498-62e90f3d0e7f)
  )
  (bus_entry (at 271.78 20.32) (size -2.54 -2.54)
    (stroke (width 0) (type default))
    (uuid eeed6da9-0702-439b-9430-e36b91259e6e)
  )
  (bus_entry (at 280.67 17.78) (size 2.54 2.54)
    (stroke (width 0) (type default))
    (uuid f8f2be57-073d-4bd7-bc6b-193ee9c2fb9b)
  )

  (wire (pts (xy 278.13 27.94) (xy 252.73 27.94))
    (stroke (width 0) (type default))
    (uuid 0041b6cf-6e29-43ba-88cc-4cf0fef62623)
  )
  (wire (pts (xy 280.67 57.15) (xy 280.67 26.67))
    (stroke (width 0) (type default))
    (uuid 00e0c412-f314-454e-980d-5a8aff9bd2f3)
  )
  (wire (pts (xy 273.05 54.61) (xy 278.13 54.61))
    (stroke (width 0) (type default))
    (uuid 02408e48-0c4f-4555-9bc5-9d9da1daa5c6)
  )
  (wire (pts (xy 85.09 92.71) (xy 88.9 92.71))
    (stroke (width 0) (type default))
    (uuid 03d50329-e563-47c6-8b89-76e62cd687b8)
  )
  (wire (pts (xy 275.59 62.23) (xy 275.59 20.32))
    (stroke (width 0) (type default))
    (uuid 08e9ecb8-757f-4984-9191-3bfb79817c6d)
  )
  (wire (pts (xy 85.09 106.68) (xy 44.45 106.68))
    (stroke (width 0) (type default))
    (uuid 0e83077e-bd11-4f88-a4e0-d6c288981ced)
  )
  (wire (pts (xy 90.17 111.76) (xy 46.99 111.76))
    (stroke (width 0) (type default))
    (uuid 12797f18-7e6d-4ed0-8e00-15c17431f42d)
  )
  (wire (pts (xy 41.91 106.68) (xy 41.91 100.33))
    (stroke (width 0) (type default))
    (uuid 13878bcb-e741-4ac4-89fc-dfc4711c4918)
  )
  (wire (pts (xy 30.48 59.69) (xy 30.48 104.14))
    (stroke (width 0) (type default))
    (uuid 13f66c67-c9ae-4291-b345-d45936202f19)
  )
  (wire (pts (xy 283.21 64.77) (xy 273.05 64.77))
    (stroke (width 0) (type default))
    (uuid 15aed95d-681f-4c31-af0b-5197bc907a5d)
  )
  (wire (pts (xy 58.42 95.25) (xy 58.42 100.33))
    (stroke (width 0) (type default))
    (uuid 16b8285b-9b5f-468e-8285-97df03a02b3d)
  )
  (bus (pts (xy 265.43 17.78) (xy 269.24 17.78))
    (stroke (width 0) (type default))
    (uuid 16dc2b4c-555d-428b-a966-c3e2e6ab06a2)
  )

  (wire (pts (xy 35.56 62.23) (xy 35.56 106.68))
    (stroke (width 0) (type default))
    (uuid 183d0473-c057-4001-93b1-b81e137c28ea)
  )
  (wire (pts (xy 125.73 97.79) (xy 133.35 97.79))
    (stroke (width 0) (type default))
    (uuid 19d9ca35-0818-44e8-8bc5-28ce54077086)
  )
  (wire (pts (xy 59.69 67.31) (xy 59.69 63.5))
    (stroke (width 0) (type default))
    (uuid 1a0ed7c7-d8d3-4a3e-a4f7-9d22085acf6b)
  )
  (wire (pts (xy 87.63 54.61) (xy 87.63 67.31))
    (stroke (width 0) (type default))
    (uuid 1b5e1368-fd3b-44c2-b986-dd13f6262b45)
  )
  (wire (pts (xy 273.05 62.23) (xy 275.59 62.23))
    (stroke (width 0) (type default))
    (uuid 1cc2f862-3220-4eb2-9eeb-2cc4e5bcbb96)
  )
  (wire (pts (xy 85.09 74.93) (xy 129.54 74.93))
    (stroke (width 0) (type default))
    (uuid 1ee350ed-51fd-44a2-9960-da275156b8d6)
  )
  (wire (pts (xy 85.09 85.09) (xy 92.71 85.09))
    (stroke (width 0) (type default))
    (uuid 1fe86642-1f6d-418a-a101-1670eac01b70)
  )
  (wire (pts (xy 85.09 90.17) (xy 90.17 90.17))
    (stroke (width 0) (type default))
    (uuid 217d1929-ebc0-4067-a9a3-28bfa3e2ec84)
  )
  (wire (pts (xy 229.87 34.29) (xy 256.54 34.29))
    (stroke (width 0) (type default))
    (uuid 24a34a48-a6ff-4600-abb2-ec052cbab9be)
  )
  (wire (pts (xy 119.38 105.41) (xy 133.35 105.41))
    (stroke (width 0) (type default))
    (uuid 24fe85d3-5f70-4ced-a4d2-43c902094af9)
  )
  (wire (pts (xy 278.13 54.61) (xy 278.13 27.94))
    (stroke (width 0) (type default))
    (uuid 25ffee4b-0c76-432f-9eab-342b7858d216)
  )
  (bus (pts (xy 273.05 17.78) (xy 276.86 17.78))
    (stroke (width 0) (type default))
    (uuid 2ba9f186-15df-4eca-aa44-e1c11abb5e4b)
  )

  (wire (pts (xy 49.53 81.28) (xy 40.64 81.28))
    (stroke (width 0) (type default))
    (uuid 2c276a66-243a-4954-b923-118efea89d4d)
  )
  (wire (pts (xy 281.94 59.69) (xy 281.94 25.4))
    (stroke (width 0) (type default))
    (uuid 2d95c328-6d12-4ee3-a317-e72084e0d95e)
  )
  (wire (pts (xy 55.88 59.69) (xy 30.48 59.69))
    (stroke (width 0) (type default))
    (uuid 2de1aff6-cca5-4c8e-9f4b-0a53112fe28b)
  )
  (wire (pts (xy 92.71 116.84) (xy 49.53 116.84))
    (stroke (width 0) (type default))
    (uuid 31d79353-e2cf-4544-a1ca-98d1e999223a)
  )
  (wire (pts (xy 88.9 109.22) (xy 45.72 109.22))
    (stroke (width 0) (type default))
    (uuid 345c997b-f3bf-40b1-8b94-47b63e2fbf63)
  )
  (wire (pts (xy 92.71 85.09) (xy 92.71 116.84))
    (stroke (width 0) (type default))
    (uuid 3ec284ef-c49e-4272-af63-01ab8824407f)
  )
  (bus (pts (xy 250.19 17.78) (xy 254 17.78))
    (stroke (width 0) (type default))
    (uuid 3fa40456-513a-4a16-8be7-2bca70a75f7b)
  )
  (bus (pts (xy 257.81 17.78) (xy 261.62 17.78))
    (stroke (width 0) (type default))
    (uuid 3fb3604f-c5fe-4b21-b82c-8f6a8ff0170b)
  )

  (wire (pts (xy 41.91 100.33) (xy 40.64 100.33))
    (stroke (width 0) (type default))
    (uuid 43676aef-c03c-46c7-b89a-cbd52e7b5afd)
  )
  (wire (pts (xy 93.98 119.38) (xy 50.8 119.38))
    (stroke (width 0) (type default))
    (uuid 475dc97e-9500-448a-837c-cce011c7ba37)
  )
  (wire (pts (xy 44.45 106.68) (xy 44.45 96.52))
    (stroke (width 0) (type default))
    (uuid 4b0812e4-63fd-4989-8ea1-414428506534)
  )
  (bus (pts (xy 254 17.78) (xy 257.81 17.78))
    (stroke (width 0) (type default))
    (uuid 4b334789-08e9-40e6-897b-52e10dbca9a5)
  )

  (wire (pts (xy 88.9 92.71) (xy 88.9 109.22))
    (stroke (width 0) (type default))
    (uuid 4b4ba8c3-02be-46de-9b60-6ba574da593d)
  )
  (wire (pts (xy 91.44 87.63) (xy 91.44 114.3))
    (stroke (width 0) (type default))
    (uuid 4bfeea2e-f88d-4956-a422-da292d45dfd7)
  )
  (bus (pts (xy 38.1 78.74) (xy 38.1 82.55))
    (stroke (width 0) (type default))
    (uuid 4c338046-1a3e-4c1d-8b14-a3ccd2c611ff)
  )
  (bus (pts (xy 38.1 86.36) (xy 38.1 90.17))
    (stroke (width 0) (type default))
    (uuid 4e831945-2dec-4f49-a0bb-6e9276a33db0)
  )

  (wire (pts (xy 248.92 64.77) (xy 222.25 64.77))
    (stroke (width 0) (type default))
    (uuid 5063613e-5ddf-42c2-b4c0-678ce97ddfbe)
  )
  (wire (pts (xy 45.72 109.22) (xy 45.72 92.71))
    (stroke (width 0) (type default))
    (uuid 516ba6a0-2179-4ddb-bb36-011efb54690c)
  )
  (wire (pts (xy 130.81 92.71) (xy 130.81 87.63))
    (stroke (width 0) (type default))
    (uuid 53f22579-8a46-4c7a-85df-5b11e8a0e2bf)
  )
  (wire (pts (xy 53.34 92.71) (xy 53.34 62.23))
    (stroke (width 0) (type default))
    (uuid 54d13381-7b8a-4031-b579-a2d2b0da2b72)
  )
  (wire (pts (xy 48.26 114.3) (xy 48.26 85.09))
    (stroke (width 0) (type default))
    (uuid 56555e49-4f7b-423d-a5e0-b7411f47bd45)
  )
  (wire (pts (xy 85.09 87.63) (xy 91.44 87.63))
    (stroke (width 0) (type default))
    (uuid 567d0021-c8d2-48c6-a181-28660c188404)
  )
  (wire (pts (xy 85.09 69.85) (xy 125.73 69.85))
    (stroke (width 0) (type default))
    (uuid 5ca6c5e2-dec5-41c4-9197-f59160447b03)
  )
  (wire (pts (xy 129.54 95.25) (xy 133.35 95.25))
    (stroke (width 0) (type default))
    (uuid 5cf2cebb-4247-4552-ad80-a64f6c69d8fa)
  )
  (wire (pts (xy 240.03 92.71) (xy 240.03 96.52))
    (stroke (width 0) (type default))
    (uuid 5ed3dc78-402e-4a67-9b19-b15fc3e9c164)
  )
  (wire (pts (xy 53.34 62.23) (xy 35.56 62.23))
    (stroke (width 0) (type default))
    (uuid 627e4db1-ff31-404b-aefc-03a14a86c0e1)
  )
  (wire (pts (xy 281.94 25.4) (xy 267.97 25.4))
    (stroke (width 0) (type default))
    (uuid 6334fec5-0045-4fd4-a6ad-8d702cb0cfd5)
  )
  (wire (pts (xy 49.53 116.84) (xy 49.53 81.28))
    (stroke (width 0) (type default))
    (uuid 656b8199-0849-49bb-a5bc-eac1ff5d28a0)
  )
  (wire (pts (xy 267.97 25.4) (xy 267.97 20.32))
    (stroke (width 0) (type default))
    (uuid 6760bcd3-0b09-4096-850a-19ffdf301b50)
  )
  (wire (pts (xy 45.72 92.71) (xy 40.64 92.71))
    (stroke (width 0) (type default))
    (uuid 67cd4636-f465-4245-ad66-4beaae3513d0)
  )
  (wire (pts (xy 151.13 100.33) (xy 161.29 100.33))
    (stroke (width 0) (type default))
    (uuid 680ff39f-df1d-43d0-8717-9621e0e3d1eb)
  )
  (wire (pts (xy 85.09 80.01) (xy 119.38 80.01))
    (stroke (width 0) (type default))
    (uuid 692d4456-30a8-46ef-a0e0-b4095a183932)
  )
  (wire (pts (xy 90.17 90.17) (xy 90.17 111.76))
    (stroke (width 0) (type default))
    (uuid 6dabb784-a390-44a2-b492-182fc93f61c6)
  )
  (wire (pts (xy 151.13 102.87) (xy 161.29 102.87))
    (stroke (width 0) (type default))
    (uuid 6e18bb09-f9dc-4f69-b708-693cc6d675d0)
  )
  (bus (pts (xy 38.1 97.79) (xy 38.1 101.6))
    (stroke (width 0) (type default))
    (uuid 70242ae6-a0dc-4f40-b7e5-3d78a1e3f707)
  )

  (wire (pts (xy 227.33 33.02) (xy 264.16 33.02))
    (stroke (width 0) (type default))
    (uuid 753f322a-94ae-412f-8c6d-8a552aeac64e)
  )
  (wire (pts (xy 248.92 59.69) (xy 227.33 59.69))
    (stroke (width 0) (type default))
    (uuid 78f4da96-df08-421a-b2b2-1a23a1ccb5bb)
  )
  (wire (pts (xy 271.78 20.32) (xy 271.78 31.75))
    (stroke (width 0) (type default))
    (uuid 79616803-61a3-4841-8e67-6adfa0a664e6)
  )
  (wire (pts (xy 40.64 88.9) (xy 46.99 88.9))
    (stroke (width 0) (type default))
    (uuid 7a86afe6-1138-4e32-a352-a2e585b06e01)
  )
  (wire (pts (xy 130.81 87.63) (xy 133.35 87.63))
    (stroke (width 0) (type default))
    (uuid 7ed980c2-37f0-4249-930c-e316bd03d440)
  )
  (wire (pts (xy 130.81 78.74) (xy 130.81 87.63))
    (stroke (width 0) (type default))
    (uuid 87052e98-a399-4344-b05c-b77f1cdfc1c8)
  )
  (wire (pts (xy 273.05 96.52) (xy 240.03 96.52))
    (stroke (width 0) (type default))
    (uuid 87d36bab-8323-45f2-bf00-2952107dc150)
  )
  (wire (pts (xy 273.05 57.15) (xy 280.67 57.15))
    (stroke (width 0) (type default))
    (uuid 88c677c3-5389-43ec-996c-a0cc6c3e7d19)
  )
  (wire (pts (xy 224.79 62.23) (xy 224.79 31.75))
    (stroke (width 0) (type default))
    (uuid 893e64cf-fdba-48a7-8ae9-0d98bbdd3b14)
  )
  (wire (pts (xy 222.25 29.21) (xy 279.4 29.21))
    (stroke (width 0) (type default))
    (uuid 899efd9b-bef5-4f97-9a20-09ded698d71b)
  )
  (wire (pts (xy 227.33 59.69) (xy 227.33 33.02))
    (stroke (width 0) (type default))
    (uuid 9375b222-a2ae-42ce-bc85-0e697532ebd9)
  )
  (bus (pts (xy 276.86 17.78) (xy 280.67 17.78))
    (stroke (width 0) (type default))
    (uuid 95460b92-c00d-40e8-9f79-ae07157cd570)
  )
  (bus (pts (xy 38.1 90.17) (xy 38.1 93.98))
    (stroke (width 0) (type default))
    (uuid 96eaa456-f819-455e-bc6a-11fd8262e063)
  )

  (wire (pts (xy 60.96 92.71) (xy 53.34 92.71))
    (stroke (width 0) (type default))
    (uuid 9bdaf089-653d-45d1-9cf9-b0f99861752d)
  )
  (wire (pts (xy 60.96 95.25) (xy 58.42 95.25))
    (stroke (width 0) (type default))
    (uuid a005760c-7ab6-4b74-8602-00f922f87426)
  )
  (wire (pts (xy 279.4 29.21) (xy 279.4 20.32))
    (stroke (width 0) (type default))
    (uuid a04cbf84-221b-4618-9c16-b8396a06af81)
  )
  (wire (pts (xy 119.38 80.01) (xy 119.38 105.41))
    (stroke (width 0) (type default))
    (uuid a0fa0245-089b-4a21-b162-dc6192ef1c27)
  )
  (wire (pts (xy 50.8 119.38) (xy 50.8 77.47))
    (stroke (width 0) (type default))
    (uuid a4862c24-410b-4ac7-856b-1872c20d39fd)
  )
  (wire (pts (xy 30.48 104.14) (xy 40.64 104.14))
    (stroke (width 0) (type default))
    (uuid a4c3a842-e72e-4a3d-a967-e159657f2d68)
  )
  (bus (pts (xy 248.92 17.78) (xy 250.19 17.78))
    (stroke (width 0) (type default))
    (uuid a92d3564-e96d-42a2-b0a7-ab0b2ac43408)
  )
  (bus (pts (xy 38.1 74.93) (xy 38.1 78.74))
    (stroke (width 0) (type default))
    (uuid aa7d37a1-004e-47bb-8bf4-7c4933b9f8ca)
  )

  (wire (pts (xy 60.96 90.17) (xy 55.88 90.17))
    (stroke (width 0) (type default))
    (uuid ab65bdb7-d846-4ac9-aa43-4ae474db32b2)
  )
  (wire (pts (xy 252.73 27.94) (xy 252.73 20.32))
    (stroke (width 0) (type default))
    (uuid af2e0602-cbe0-48f4-a98c-4a1eb69b5584)
  )
  (bus (pts (xy 38.1 82.55) (xy 38.1 86.36))
    (stroke (width 0) (type default))
    (uuid afdd0c2d-133c-401d-aae9-fd353964214c)
  )

  (wire (pts (xy 50.8 77.47) (xy 40.64 77.47))
    (stroke (width 0) (type default))
    (uuid b27e36dd-0304-478c-b7f4-d730e8960aa9)
  )
  (bus (pts (xy 261.62 17.78) (xy 265.43 17.78))
    (stroke (width 0) (type default))
    (uuid b5e478f7-d142-4f51-878b-3ce0e8db7850)
  )

  (wire (pts (xy 273.05 92.71) (xy 273.05 96.52))
    (stroke (width 0) (type default))
    (uuid b672f44f-2f05-4f7f-95e6-9adffd91735d)
  )
  (wire (pts (xy 248.92 57.15) (xy 229.87 57.15))
    (stroke (width 0) (type default))
    (uuid b7f4ed7f-43df-4004-ba0e-3160eeaec3eb)
  )
  (wire (pts (xy 91.44 114.3) (xy 48.26 114.3))
    (stroke (width 0) (type default))
    (uuid b8e0cc2c-3ac3-4719-b194-4d1eef4a78ef)
  )
  (wire (pts (xy 44.45 96.52) (xy 40.64 96.52))
    (stroke (width 0) (type default))
    (uuid bc827e6b-fff3-457c-b2e6-f92c85f007ac)
  )
  (wire (pts (xy 85.09 77.47) (xy 111.76 77.47))
    (stroke (width 0) (type default))
    (uuid c1c709ae-bcaa-41bb-a407-c3721e574dfc)
  )
  (wire (pts (xy 273.05 59.69) (xy 281.94 59.69))
    (stroke (width 0) (type default))
    (uuid c2a4387c-3748-4531-9cbf-abe5bed3a8a6)
  )
  (wire (pts (xy 248.92 92.71) (xy 240.03 92.71))
    (stroke (width 0) (type default))
    (uuid c47f4ffa-fea3-41e4-9ae3-78af49d2aed6)
  )
  (wire (pts (xy 85.09 95.25) (xy 85.09 106.68))
    (stroke (width 0) (type default))
    (uuid c4c82570-e6c0-4f5d-82c6-388109145b5a)
  )
  (wire (pts (xy 240.03 96.52) (xy 240.03 101.6))
    (stroke (width 0) (type default))
    (uuid c4ed2f72-614d-4211-b0de-14895476328d)
  )
  (wire (pts (xy 222.25 64.77) (xy 222.25 29.21))
    (stroke (width 0) (type default))
    (uuid c863016e-d8ff-4592-a63e-7ee7030e4b26)
  )
  (wire (pts (xy 133.35 92.71) (xy 130.81 92.71))
    (stroke (width 0) (type default))
    (uuid c95e92ac-1ede-4c0b-9339-c4333d040f1e)
  )
  (wire (pts (xy 256.54 34.29) (xy 256.54 20.32))
    (stroke (width 0) (type default))
    (uuid d48bdbb6-718e-402f-a840-2d4ee8e6a94b)
  )
  (wire (pts (xy 283.21 20.32) (xy 283.21 64.77))
    (stroke (width 0) (type default))
    (uuid d53c43b9-43da-4623-a4bf-c21e91a0fcce)
  )
  (wire (pts (xy 248.92 90.17) (xy 240.03 90.17))
    (stroke (width 0) (type default))
    (uuid d6927273-3580-42b5-b8e7-fbbc295bf428)
  )
  (wire (pts (xy 248.92 62.23) (xy 224.79 62.23))
    (stroke (width 0) (type default))
    (uuid d6f50c8c-ef91-452c-890e-0a93c3a05956)
  )
  (wire (pts (xy 48.26 85.09) (xy 40.64 85.09))
    (stroke (width 0) (type default))
    (uuid db593339-8192-47ec-802a-9b4d9706117d)
  )
  (wire (pts (xy 264.16 20.32) (xy 264.16 33.02))
    (stroke (width 0) (type default))
    (uuid de1c5bf9-01aa-4bf2-b6db-7bc3da607623)
  )
  (wire (pts (xy 240.03 90.17) (xy 240.03 92.71))
    (stroke (width 0) (type default))
    (uuid df29e9b0-dd5a-448a-ae56-60427b7ee99b)
  )
  (wire (pts (xy 229.87 57.15) (xy 229.87 34.29))
    (stroke (width 0) (type default))
    (uuid e20e19ed-3a8b-41f1-968e-6576ade2b1dd)
  )
  (wire (pts (xy 55.88 90.17) (xy 55.88 59.69))
    (stroke (width 0) (type default))
    (uuid e489896b-bb12-4455-ae97-b5266ab0db80)
  )
  (wire (pts (xy 46.99 111.76) (xy 46.99 88.9))
    (stroke (width 0) (type default))
    (uuid e4a35333-9c69-45e7-835c-2e20c6166129)
  )
  (bus (pts (xy 38.1 93.98) (xy 38.1 97.79))
    (stroke (width 0) (type default))
    (uuid e8c8e406-ce07-40d2-a3ba-d194b5d31652)
  )

  (wire (pts (xy 111.76 77.47) (xy 111.76 102.87))
    (stroke (width 0) (type default))
    (uuid e98ebd96-fc23-4e82-85d8-85f7178410be)
  )
  (wire (pts (xy 224.79 31.75) (xy 271.78 31.75))
    (stroke (width 0) (type default))
    (uuid e9a6c43c-618d-431f-b63b-63b938aed20f)
  )
  (wire (pts (xy 111.76 102.87) (xy 133.35 102.87))
    (stroke (width 0) (type default))
    (uuid eb24847b-bb6f-42ec-b007-095467dffcd5)
  )
  (wire (pts (xy 280.67 26.67) (xy 260.35 26.67))
    (stroke (width 0) (type default))
    (uuid ec1ebbef-da5a-43dd-aef3-e8fc1fef78f3)
  )
  (wire (pts (xy 35.56 106.68) (xy 41.91 106.68))
    (stroke (width 0) (type default))
    (uuid ed44c4c6-7405-4391-bb6d-86fc4adad4b5)
  )
  (wire (pts (xy 59.69 67.31) (xy 60.96 67.31))
    (stroke (width 0) (type default))
    (uuid edd16fa1-e905-4687-8c1c-7d1777c587a2)
  )
  (wire (pts (xy 87.63 67.31) (xy 85.09 67.31))
    (stroke (width 0) (type default))
    (uuid ef1f6fa6-770c-4b87-90c8-46ebc4f05df5)
  )
  (wire (pts (xy 125.73 69.85) (xy 125.73 97.79))
    (stroke (width 0) (type default))
    (uuid f4e7cf84-5c9f-4e30-89cc-4d97f57cdf7e)
  )
  (wire (pts (xy 93.98 82.55) (xy 93.98 119.38))
    (stroke (width 0) (type default))
    (uuid f6fcb9c5-8a5b-4bdf-ad3b-88b2890aae2b)
  )
  (bus (pts (xy 269.24 17.78) (xy 273.05 17.78))
    (stroke (width 0) (type default))
    (uuid f9c13e96-af17-4ac9-9516-915e166807b3)
  )

  (wire (pts (xy 260.35 26.67) (xy 260.35 20.32))
    (stroke (width 0) (type default))
    (uuid fd8a55a7-38ed-458f-badd-5afd08d5bcbc)
  )
  (wire (pts (xy 129.54 74.93) (xy 129.54 95.25))
    (stroke (width 0) (type default))
    (uuid fe0105ff-f9c9-48e1-9676-912426b5df3b)
  )
  (wire (pts (xy 85.09 82.55) (xy 93.98 82.55))
    (stroke (width 0) (type default))
    (uuid ff3fa4bb-121a-45eb-b8b3-6186433651fd)
  )

  (text "Data bus" (at 261.62 16.51 0)
    (effects (font (size 1.27 1.27)) (justify left bottom))
    (uuid 06805893-22ae-4b3b-827f-329dbf8be86b)
  )
  (text "Data bus" (at 38.1 91.44 90)
    (effects (font (size 1.27 1.27)) (justify left bottom))
    (uuid a3a9dc78-5abd-4caa-8370-87ea84c88506)
  )

  (label "D2" (at 274.32 62.23 0) (fields_autoplaced)
    (effects (font (size 1.27 1.27)) (justify left bottom))
    (uuid 1f40b8bc-1d35-4a33-a873-4acf3970ef2b)
  )
  (label "D0" (at 57.15 90.17 0) (fields_autoplaced)
    (effects (font (size 1.27 1.27)) (justify left bottom))
    (uuid 2dc65aa7-b671-4e48-8a17-7ce8896c15e9)
  )
  (label "D8" (at 274.32 54.61 0) (fields_autoplaced)
    (effects (font (size 1.27 1.27)) (justify left bottom))
    (uuid 2fce5056-f685-42da-8eda-6720e272a2de)
  )
  (label "D1" (at 246.38 64.77 0) (fields_autoplaced)
    (effects (font (size 1.27 1.27)) (justify left bottom))
    (uuid 432dab96-eb5a-4ef3-92bb-0e7199274249)
  )
  (label "D6" (at 274.32 57.15 0) (fields_autoplaced)
    (effects (font (size 1.27 1.27)) (justify left bottom))
    (uuid 53f20f99-ec99-44ed-983d-827b0a5adda9)
  )
  (label "D4" (at 274.32 59.69 0) (fields_autoplaced)
    (effects (font (size 1.27 1.27)) (justify left bottom))
    (uuid 5793bb9c-c9a1-4331-8918-5e432d9f3c71)
  )
  (label "D3" (at 246.38 62.23 0) (fields_autoplaced)
    (effects (font (size 1.27 1.27)) (justify left bottom))
    (uuid 8b34f7e0-cef2-4d17-beaa-f96891c1e6c9)
  )
  (label "D7" (at 71.12 119.38 0) (fields_autoplaced)
    (effects (font (size 1.27 1.27)) (justify left bottom))
    (uuid 9a522899-1ffc-4b84-9c72-96a80241e2c0)
  )
  (label "D2" (at 71.12 106.68 0) (fields_autoplaced)
    (effects (font (size 1.27 1.27)) (justify left bottom))
    (uuid bcf2542c-e1a2-454f-be4a-088c19ec57af)
  )
  (label "D0" (at 274.32 64.77 0) (fields_autoplaced)
    (effects (font (size 1.27 1.27)) (justify left bottom))
    (uuid c1beb41a-c9a9-4dc3-ae54-6c9c9f13b6c2)
  )
  (label "D5" (at 246.38 59.69 0) (fields_autoplaced)
    (effects (font (size 1.27 1.27)) (justify left bottom))
    (uuid c96938a8-508b-4b4a-84e9-83d87e21313d)
  )
  (label "D3" (at 71.12 109.22 0) (fields_autoplaced)
    (effects (font (size 1.27 1.27)) (justify left bottom))
    (uuid ca882d4f-e6bb-4baa-abf9-d30120cadd26)
  )
  (label "D5" (at 71.12 114.3 0) (fields_autoplaced)
    (effects (font (size 1.27 1.27)) (justify left bottom))
    (uuid cf2530b7-15c8-4564-aaae-0a19c16a50cb)
  )
  (label "D4" (at 71.12 111.76 0) (fields_autoplaced)
    (effects (font (size 1.27 1.27)) (justify left bottom))
    (uuid d28b8a21-b391-46e0-b1d4-ee48eb2add11)
  )
  (label "D6" (at 71.12 116.84 0) (fields_autoplaced)
    (effects (font (size 1.27 1.27)) (justify left bottom))
    (uuid daf8dc79-0802-47d2-a682-24445f684bb0)
  )
  (label "D1" (at 57.15 92.71 0) (fields_autoplaced)
    (effects (font (size 1.27 1.27)) (justify left bottom))
    (uuid df539b01-91e8-4344-991b-d00760a62f47)
  )
  (label "D7" (at 246.38 57.15 0) (fields_autoplaced)
    (effects (font (size 1.27 1.27)) (justify left bottom))
    (uuid e752a3f2-2d23-449d-bd2b-587a3e6232ed)
  )

  (global_label "CHB" (shape input) (at 161.29 102.87 0) (fields_autoplaced)
    (effects (font (size 1.27 1.27)) (justify left))
    (uuid 59132206-3ba6-4a2d-9157-0d8c7b62d147)
    (property "Intersheetrefs" "${INTERSHEET_REFS}" (at 168.0663 102.87 0)
      (effects (font (size 1.27 1.27)) (justify left) hide)
    )
  )
  (global_label "CHA" (shape input) (at 161.29 100.33 0) (fields_autoplaced)
    (effects (font (size 1.27 1.27)) (justify left))
    (uuid dbdff394-9a26-4baf-b8b6-1e17b5d65289)
    (property "Intersheetrefs" "${INTERSHEET_REFS}" (at 167.8849 100.33 0)
      (effects (font (size 1.27 1.27)) (justify left) hide)
    )
  )

  (symbol (lib_id "power:GND") (at 240.03 101.6 0) (unit 1)
    (in_bom yes) (on_board yes) (dnp no) (fields_autoplaced)
    (uuid 0759c9ce-6192-4f07-bd36-d88097e050da)
    (property "Reference" "#PWR05" (at 240.03 107.95 0)
      (effects (font (size 1.27 1.27)) hide)
    )
    (property "Value" "GND" (at 240.03 105.7355 0)
      (effects (font (size 1.27 1.27)))
    )
    (property "Footprint" "" (at 240.03 101.6 0)
      (effects (font (size 1.27 1.27)) hide)
    )
    (property "Datasheet" "" (at 240.03 101.6 0)
      (effects (font (size 1.27 1.27)) hide)
    )
    (pin "1" (uuid b6ab3a54-f893-4bec-ae6b-3ab2bd252c65))
    (instances
      (project "AtariStOpl3Cart"
        (path "/70ec858d-9e2c-4ce5-9cb6-c05c5aa2a458"
          (reference "#PWR05") (unit 1)
        )
      )
    )
  )

  (symbol (lib_id "power:GND") (at 58.42 100.33 0) (unit 1)
    (in_bom yes) (on_board yes) (dnp no) (fields_autoplaced)
    (uuid 0cdb85b5-b08e-4e0a-9a16-a0e0f1ff6810)
    (property "Reference" "#PWR01" (at 58.42 106.68 0)
      (effects (font (size 1.27 1.27)) hide)
    )
    (property "Value" "GND" (at 58.42 104.4655 0)
      (effects (font (size 1.27 1.27)))
    )
    (property "Footprint" "" (at 58.42 100.33 0)
      (effects (font (size 1.27 1.27)) hide)
    )
    (property "Datasheet" "" (at 58.42 100.33 0)
      (effects (font (size 1.27 1.27)) hide)
    )
    (pin "1" (uuid 992b7045-2d0c-4037-bac7-f188550c02aa))
    (instances
      (project "AtariStOpl3Cart"
        (path "/70ec858d-9e2c-4ce5-9cb6-c05c5aa2a458"
          (reference "#PWR01") (unit 1)
        )
      )
    )
  )

  (symbol (lib_id "power:+5V") (at 130.81 78.74 0) (unit 1)
    (in_bom yes) (on_board yes) (dnp no) (fields_autoplaced)
    (uuid 13b57ea4-d2c5-460a-bed8-1b4af4818f2d)
    (property "Reference" "#PWR03" (at 130.81 82.55 0)
      (effects (font (size 1.27 1.27)) hide)
    )
    (property "Value" "+5V" (at 130.81 75.2381 0)
      (effects (font (size 1.27 1.27)))
    )
    (property "Footprint" "" (at 130.81 78.74 0)
      (effects (font (size 1.27 1.27)) hide)
    )
    (property "Datasheet" "" (at 130.81 78.74 0)
      (effects (font (size 1.27 1.27)) hide)
    )
    (pin "1" (uuid aacf5116-9caa-42ea-bc6b-96006c2d8e8f))
    (instances
      (project "AtariStOpl3Cart"
        (path "/70ec858d-9e2c-4ce5-9cb6-c05c5aa2a458"
          (reference "#PWR03") (unit 1)
        )
      )
    )
  )

  (symbol (lib_id "YM_OPL:YM262-M 24SOP") (at 72.39 80.01 0) (unit 1)
    (in_bom yes) (on_board yes) (dnp no) (fields_autoplaced)
    (uuid 1592bc39-d1eb-404a-80ac-8b0a04b09799)
    (property "Reference" "U1" (at 73.025 63.1571 0)
      (effects (font (size 1.27 1.27)))
    )
    (property "Value" "YM262-M 24SOP" (at 73.025 65.0781 0)
      (effects (font (size 1.27 1.27)))
    )
    (property "Footprint" "Package_SO:SOP-24_7.5x15.4mm_P1.27mm" (at 66.04 66.04 0)
      (effects (font (size 1.27 1.27)) hide)
    )
    (property "Datasheet" "" (at 66.04 66.04 0)
      (effects (font (size 1.27 1.27)) hide)
    )
    (pin "" (uuid b91de0c0-6064-4892-8612-3db462538e71))
    (pin "1" (uuid 8b45673b-d31f-477e-aa2b-1306dd950920))
    (pin "10" (uuid 01bdb694-cbde-412b-b985-62dea892b858))
    (pin "11" (uuid 2f61d9cc-05f3-4c6f-a3cf-285c8e90c32f))
    (pin "12" (uuid 9e6c71e4-5401-437b-9f00-f5204d5f13fc))
    (pin "13" (uuid 56e4039f-f7d6-4bf7-933f-9e21a3851d17))
    (pin "14" (uuid ddaca187-15e6-421a-9aa3-886b99ada0f2))
    (pin "15" (uuid cf8b776e-46cd-45e1-84c6-ed5d622fd489))
    (pin "16" (uuid bc6f34c6-7c09-4631-905a-bcc5fb3a0caf))
    (pin "17" (uuid 11ee8539-39ac-423b-bc30-483d26afbae5))
    (pin "18" (uuid 719247e5-1655-4694-92a3-fc917a621111))
    (pin "19" (uuid 9c804d73-1a27-4df5-ad11-3fb7f5e45857))
    (pin "2" (uuid fd421349-fbcd-46b1-be1c-78ea3b221864))
    (pin "20" (uuid 7d93c788-8311-4bed-9f4e-7383ff99324f))
    (pin "21" (uuid 1f10bff2-54ea-427e-a13a-11dd3a9af86d))
    (pin "22" (uuid a8bb19ff-642a-4a29-8657-83a53b882748))
    (pin "23" (uuid 7925e0e0-45e8-4e8d-98a6-c3772ff27808))
    (pin "3" (uuid 356d9c40-c644-4b0f-b875-aabc0c6f74e8))
    (pin "4" (uuid dd6dac5b-b9e9-4306-a646-93e72947e466))
    (pin "5" (uuid 25fcbb8f-fc83-4f7e-84a2-958d61e24343))
    (pin "6" (uuid bea4f74a-ce77-4d49-9ff2-ebe254467d52))
    (pin "7" (uuid 9baa9fc7-22a9-4bc0-91b4-8ce788ceae7a))
    (pin "8" (uuid f50df97f-27e9-42ce-abec-250573f5b1af))
    (pin "9" (uuid b6d02b2c-0cca-49fa-a6ea-8289c36c8dd9))
    (instances
      (project "AtariStOpl3Cart"
        (path "/70ec858d-9e2c-4ce5-9cb6-c05c5aa2a458"
          (reference "U1") (unit 1)
        )
      )
    )
  )

  (symbol (lib_id "power:+5V") (at 59.69 63.5 0) (unit 1)
    (in_bom yes) (on_board yes) (dnp no) (fields_autoplaced)
    (uuid 3f34b003-5654-4239-a3d0-a419c5d251e4)
    (property "Reference" "#PWR02" (at 59.69 67.31 0)
      (effects (font (size 1.27 1.27)) hide)
    )
    (property "Value" "+5V" (at 59.69 59.9981 0)
      (effects (font (size 1.27 1.27)))
    )
    (property "Footprint" "" (at 59.69 63.5 0)
      (effects (font (size 1.27 1.27)) hide)
    )
    (property "Datasheet" "" (at 59.69 63.5 0)
      (effects (font (size 1.27 1.27)) hide)
    )
    (pin "1" (uuid 72761bdb-0d37-4484-955d-f10d3e9f67ea))
    (instances
      (project "AtariStOpl3Cart"
        (path "/70ec858d-9e2c-4ce5-9cb6-c05c5aa2a458"
          (reference "#PWR02") (unit 1)
        )
      )
    )
  )

  (symbol (lib_id "Device:Crystal") (at 91.44 54.61 180) (unit 1)
    (in_bom yes) (on_board yes) (dnp no) (fields_autoplaced)
    (uuid 7c88253c-9cbf-4e94-a076-2afc4bca2a9d)
    (property "Reference" "Y1" (at 91.44 49.0347 0)
      (effects (font (size 1.27 1.27)))
    )
    (property "Value" "Crystal" (at 91.44 50.9557 0)
      (effects (font (size 1.27 1.27)))
    )
    (property "Footprint" "" (at 91.44 54.61 0)
      (effects (font (size 1.27 1.27)) hide)
    )
    (property "Datasheet" "~" (at 91.44 54.61 0)
      (effects (font (size 1.27 1.27)) hide)
    )
    (pin "1" (uuid 4fdf4bb4-bc0a-47bb-a43d-dd547523a16d))
    (pin "2" (uuid 3e94a694-6e29-41ab-803c-0a7ebcdde96a))
    (instances
      (project "AtariStOpl3Cart"
        (path "/70ec858d-9e2c-4ce5-9cb6-c05c5aa2a458"
          (reference "Y1") (unit 1)
        )
      )
    )
  )

  (symbol (lib_id "AtariST:Atari_ST_Cartridge_Connector") (at 251.46 93.98 0) (unit 1)
    (in_bom yes) (on_board yes) (dnp no) (fields_autoplaced)
    (uuid 9dbf9a17-ce6e-4119-adb0-8a66364fd67f)
    (property "Reference" "U2" (at 261.62 42.218 0)
      (effects (font (size 1.27 1.27)))
    )
    (property "Value" "STCartridgeConnector" (at 251.46 93.98 0)
      (effects (font (size 1.27 1.27)))
    )
    (property "Footprint" "AtariSTFootrpints:Atari_ST_cartridge_edge_connector" (at 251.46 93.98 0)
      (effects (font (size 1.27 1.27)) hide)
    )
    (property "Datasheet" "" (at 251.46 93.98 0)
      (effects (font (size 1.27 1.27)) hide)
    )
    (pin "1" (uuid 43b57eae-d5f4-441c-a764-985cc69b8bb9))
    (pin "10" (uuid 1b401ee4-8675-4fd2-92f3-2bfa1f9e0048))
    (pin "11" (uuid 349b19ed-e135-4c22-9205-63120c705023))
    (pin "12" (uuid def83a09-3d07-4c4d-96e7-d243f57805a8))
    (pin "13" (uuid 199415c4-034d-4dd2-b56f-c1cfec4d3956))
    (pin "14" (uuid 593d77db-c9cb-4d2b-b62a-5e2b5bac3cfc))
    (pin "15" (uuid 50974f4c-cc3b-4a66-8556-79f5b0a73060))
    (pin "16" (uuid 5479ebbe-de90-4b3d-83d6-ff0019d46d19))
    (pin "17" (uuid 12b915d2-6cf5-4cc7-8c3b-f93e308ce9ae))
    (pin "18" (uuid 32c9264f-507d-4e1c-8ad9-d318ef25bfe3))
    (pin "19" (uuid 1df44417-21ec-4c83-afb5-2c94f31f10ba))
    (pin "2" (uuid 052bf150-4c2f-45b3-8f7d-985b728f1094))
    (pin "20" (uuid 2b6070c2-e932-4ed8-a81f-cb00877962fe))
    (pin "21" (uuid 86b3061a-26c6-4b57-901c-c8c6e4cda401))
    (pin "22" (uuid c9e5b6fb-80ac-4daf-8d08-2ce1b151c8a0))
    (pin "23" (uuid 514f2de8-220d-42b5-bdf8-1916fe6c0785))
    (pin "24" (uuid 9c305511-a783-40a4-a6fc-7012fb56c933))
    (pin "25" (uuid 3c72db5d-33d4-4aba-9ce7-6052fcacc2c6))
    (pin "26" (uuid fd6b6330-5f57-4ab7-98fb-c68edc62f897))
    (pin "27" (uuid 4beecc77-28c0-47e2-86c1-ec9cd19ecc2b))
    (pin "28" (uuid d52f4fea-861a-405f-b98d-57d81195bc68))
    (pin "29" (uuid f94a96b3-0cff-477a-b455-06882aff4f83))
    (pin "3" (uuid 01b1507e-0343-44be-95c2-863d7f174172))
    (pin "30" (uuid 7758e012-bbbb-492e-bb6b-6ad876b6d9f9))
    (pin "31" (uuid bff9c113-20d3-408f-b1e2-201c36c988af))
    (pin "32" (uuid 12fa9dcd-7c89-4c41-90dd-ff8cb4875140))
    (pin "33" (uuid 8acab4a3-043b-4972-b252-6779d67eb924))
    (pin "34" (uuid 78e09630-f0e6-4b8d-a7b0-5f393a3d7cb1))
    (pin "35" (uuid 1c5214bb-8fd9-4ef5-9a64-7fbb5fe0a783))
    (pin "36" (uuid 3553fea4-4a92-4653-8c5b-705fe509d077))
    (pin "37" (uuid 2168da19-9b78-415c-89bb-7bed3697c953))
    (pin "38" (uuid f78739be-8d83-4f02-a72b-3eafc7e29959))
    (pin "39" (uuid 2925d213-1e58-4d80-9023-b6e66d4c3252))
    (pin "4" (uuid 344d2d0c-3944-478b-b2f3-810ace340c4d))
    (pin "40" (uuid 4fcfb196-a184-4aa4-9771-0c0e7d7f6a97))
    (pin "5" (uuid 8db093ea-f62d-44d9-bb4e-4102d4c5a2bf))
    (pin "6" (uuid eb2d6788-cf8d-48c4-999e-519e7b21b109))
    (pin "7" (uuid 25b293c5-1806-469a-b07f-44bf2320a95a))
    (pin "8" (uuid 21eee78a-5305-4085-8e0e-8460a814e115))
    (pin "9" (uuid e0070ff7-86c5-4f80-8124-234c9fd69a16))
    (instances
      (project "AtariStOpl3Cart"
        (path "/70ec858d-9e2c-4ce5-9cb6-c05c5aa2a458"
          (reference "U2") (unit 1)
        )
      )
    )
  )

  (symbol (lib_name "YAC-512-M 16SOP_1") (lib_id "YM_OPL:YAC-512-M 16SOP") (at 142.24 96.52 0) (unit 1)
    (in_bom yes) (on_board yes) (dnp no) (fields_autoplaced)
    (uuid cc9b37d3-93bd-432c-a601-9035513d3be3)
    (property "Reference" "U3" (at 142.24 83.4771 0)
      (effects (font (size 1.27 1.27)))
    )
    (property "Value" "YAC-512-M 16SOP" (at 142.24 85.3981 0)
      (effects (font (size 1.27 1.27)))
    )
    (property "Footprint" "Package_SO:SOP-16_3.9x9.9mm_P1.27mm" (at 137.16 93.98 0)
      (effects (font (size 1.27 1.27)) hide)
    )
    (property "Datasheet" "" (at 137.16 93.98 0)
      (effects (font (size 1.27 1.27)) hide)
    )
    (pin "1" (uuid 117fff3c-7276-4dd4-abbe-1ac0ebd67f5a))
    (pin "10" (uuid 38f303ed-4fad-4166-97b7-33f9a1ef4811))
    (pin "11" (uuid 1415d4e8-de20-474d-9d08-ceeb6060c350))
    (pin "12" (uuid 4bc09bd0-ab31-4f82-8afd-515f90dd681a))
    (pin "13" (uuid f99fbc99-11e2-495c-be9d-e4d3b7858247))
    (pin "14" (uuid f7c4855f-4c25-416b-ba91-2dde15636fa4))
    (pin "15" (uuid f9020a6c-7e37-4aaa-bb7c-868b121e7741))
    (pin "16" (uuid 36cf448b-b4ed-48fe-be45-fd388e758fac))
    (pin "2" (uuid 844c988e-f364-44c7-b1bd-3b274a8ea41b))
    (pin "3" (uuid e49e077e-8191-42f2-b855-0e34ed05e4f7))
    (pin "4" (uuid e8da6b98-7567-4e54-aa01-c1b37395571e))
    (pin "5" (uuid 131c0761-0c6f-43d7-bddd-34c668ccc525))
    (pin "6" (uuid 16f96549-267c-4b99-afb7-335dafa291a7))
    (pin "7" (uuid 0727ad5c-cfed-4b2e-94ff-f13fcf72853f))
    (pin "8" (uuid 3d277ded-1029-440b-8731-ab5215ac2a98))
    (pin "9" (uuid 8c7ff438-d3b6-4711-a41c-32d3c7dce9d2))
    (instances
      (project "AtariStOpl3Cart"
        (path "/70ec858d-9e2c-4ce5-9cb6-c05c5aa2a458"
          (reference "U3") (unit 1)
        )
      )
    )
  )

  (sheet_instances
    (path "/" (page "1"))
  )
)
