(footprint "YM-262-M" (version 20221018) (generator pcbnew)
  (layer "F.Cu")
  (attr smd)
  (fp_text reference "REF**" (at 0 -0.5 unlocked) (layer "F.SilkS") hide
      (effects (font (size 1 1) (thickness 0.15)))
    (tstamp 0ef46803-80be-4a21-98a9-80f13dfb58a0)
  )
  (fp_text value "YM-262-M" (at 0 1 unlocked) (layer "F.Fab") hide
      (effects (font (size 1 1) (thickness 0.15)))
    (tstamp c5793c0f-2388-4f64-ba29-38ba1df5c53a)
  )
  (fp_text user "${REFERENCE}" (at 7.68 -0.72 90) (layer "F.Fab")
      (effects (font (size 1 1) (thickness 0.15)))
    (tstamp 056a6ace-1150-4cff-8e16-1bb5f10acf67)
  )
  (fp_line (start -3.86 -8.81) (end -3.86 -8.52)
    (stroke (width 0.12) (type solid)) (layer "F.SilkS") (tstamp c80b936c-fa8e-454d-92f6-8571b0f3363f))
  (fp_line (start -3.86 -8.52) (end -5.65 -8.52)
    (stroke (width 0.12) (type solid)) (layer "F.SilkS") (tstamp 5a351f1a-eb4f-473c-ba1f-9394bba89298))
  (fp_line (start -3.86 6.81) (end -3.86 6.52)
    (stroke (width 0.12) (type solid)) (layer "F.SilkS") (tstamp f6cf72f0-afa2-43a5-8886-1b9630780a3b))
  (fp_line (start 0 -8.81) (end -3.86 -8.81)
    (stroke (width 0.12) (type solid)) (layer "F.SilkS") (tstamp 6b251055-7f1f-4d7f-bb5d-d3ad9e292891))
  (fp_line (start 0 -8.81) (end 3.86 -8.81)
    (stroke (width 0.12) (type solid)) (layer "F.SilkS") (tstamp 0d547328-2a5b-4ae6-a4b5-ed89ca9941ba))
  (fp_line (start 0 6.81) (end -3.86 6.81)
    (stroke (width 0.12) (type solid)) (layer "F.SilkS") (tstamp 48f5be38-b537-4ca7-85bf-2ead4d404193))
  (fp_line (start 0 6.81) (end 3.86 6.81)
    (stroke (width 0.12) (type solid)) (layer "F.SilkS") (tstamp b983521c-d05f-4360-8ebe-bb7f70d2df3d))
  (fp_line (start 3.86 -8.81) (end 3.86 -8.52)
    (stroke (width 0.12) (type solid)) (layer "F.SilkS") (tstamp 81fc1cb7-0ee6-4e31-bcf3-82403202403f))
  (fp_line (start 3.86 6.81) (end 3.86 6.52)
    (stroke (width 0.12) (type solid)) (layer "F.SilkS") (tstamp dfd238d0-fb58-4542-933e-0752f2d5fadf))
  (fp_line (start -5.9 -8.95) (end -5.9 6.95)
    (stroke (width 0.05) (type solid)) (layer "F.CrtYd") (tstamp 25a850f0-119c-430f-93dc-d28e2effda66))
  (fp_line (start -5.9 6.95) (end 5.9 6.95)
    (stroke (width 0.05) (type solid)) (layer "F.CrtYd") (tstamp d772c5af-a90b-47f4-b3f6-1ef64199059e))
  (fp_line (start 5.9 -8.95) (end -5.9 -8.95)
    (stroke (width 0.05) (type solid)) (layer "F.CrtYd") (tstamp 935d9914-45dd-44c2-bdaf-dea17928722c))
  (fp_line (start 5.9 6.95) (end 5.9 -8.95)
    (stroke (width 0.05) (type solid)) (layer "F.CrtYd") (tstamp 6fbab107-cd62-45ad-9386-00fdec96f89b))
  (fp_line (start -3.75 -7.7) (end -2.75 -8.7)
    (stroke (width 0.1) (type solid)) (layer "F.Fab") (tstamp 24f5fb36-e182-44eb-9f48-ca735f261724))
  (fp_line (start -3.75 6.7) (end -3.75 -7.7)
    (stroke (width 0.1) (type solid)) (layer "F.Fab") (tstamp 6ea3c8d1-0360-4fef-a6b4-ca916244c676))
  (fp_line (start -2.75 -8.7) (end 3.75 -8.7)
    (stroke (width 0.1) (type solid)) (layer "F.Fab") (tstamp e942117a-ae95-4ffd-891b-6735df3b98b6))
  (fp_line (start 3.75 -8.7) (end 3.75 6.7)
    (stroke (width 0.1) (type solid)) (layer "F.Fab") (tstamp d7e0a807-98dc-4cdb-b671-cc659788f0a5))
  (fp_line (start 3.75 6.7) (end -3.75 6.7)
    (stroke (width 0.1) (type solid)) (layer "F.Fab") (tstamp b01bce05-e146-4f17-8e0e-9f5e03c81ef8))
  (pad "1" smd roundrect (at -5.05 -7.985) (size 2 0.55) (layers "F.Cu" "F.Paste" "F.Mask") (roundrect_rratio 0.25) (tstamp 9978b325-eff1-4537-a226-44e458a9f748))
  (pad "2" smd roundrect (at -5.05 -6.715) (size 2 0.55) (layers "F.Cu" "F.Paste" "F.Mask") (roundrect_rratio 0.25) (tstamp 8dc66a18-9221-446e-9a10-01fefac8924f))
  (pad "3" smd roundrect (at -5.05 -5.445) (size 2 0.55) (layers "F.Cu" "F.Paste" "F.Mask") (roundrect_rratio 0.25) (tstamp 11c8db0c-6af7-4801-91df-bc9c281f3b4d))
  (pad "4" smd roundrect (at -5.05 -4.175) (size 2 0.55) (layers "F.Cu" "F.Paste" "F.Mask") (roundrect_rratio 0.25) (tstamp 60845c7b-a9ad-4924-b70f-1f3ca733b1ad))
  (pad "5" smd roundrect (at -5.05 -2.905) (size 2 0.55) (layers "F.Cu" "F.Paste" "F.Mask") (roundrect_rratio 0.25) (tstamp 7fa7c9ca-9730-46df-9bf9-50dea5807ba1))
  (pad "6" smd roundrect (at -5.05 -1.635) (size 2 0.55) (layers "F.Cu" "F.Paste" "F.Mask") (roundrect_rratio 0.25) (tstamp 6f600650-3cd9-4b02-825e-ac348697fb43))
  (pad "7" smd roundrect (at -5.05 -0.365) (size 2 0.55) (layers "F.Cu" "F.Paste" "F.Mask") (roundrect_rratio 0.25) (tstamp d7fe2b2f-734e-426a-8080-05d2679558de))
  (pad "8" smd roundrect (at -5.05 0.905) (size 2 0.55) (layers "F.Cu" "F.Paste" "F.Mask") (roundrect_rratio 0.25) (tstamp d75ca0b1-73d4-4a9e-9260-0a9178f8e836))
  (pad "9" smd roundrect (at -5.05 2.175) (size 2 0.55) (layers "F.Cu" "F.Paste" "F.Mask") (roundrect_rratio 0.25) (tstamp 6cbbcd50-f708-4229-a0b1-f0f9029ef998))
  (pad "10" smd roundrect (at -5.05 3.445) (size 2 0.55) (layers "F.Cu" "F.Paste" "F.Mask") (roundrect_rratio 0.25) (tstamp 73ba9e84-ddcb-4bf1-aad8-82ff5da72a5d))
  (pad "11" smd roundrect (at -5.05 4.715) (size 2 0.55) (layers "F.Cu" "F.Paste" "F.Mask") (roundrect_rratio 0.25) (tstamp 54418c2c-1023-4d46-8de7-a267b60c79e5))
  (pad "12" smd roundrect (at -5.05 5.985) (size 2 0.55) (layers "F.Cu" "F.Paste" "F.Mask") (roundrect_rratio 0.25) (tstamp 72501f96-8c5c-4998-8110-687710fc2dbc))
  (pad "13" smd roundrect (at 5.05 5.985) (size 2 0.55) (layers "F.Cu" "F.Paste" "F.Mask") (roundrect_rratio 0.25) (tstamp 670c7111-e571-4b28-8dd1-3496b7a6dbbc))
  (pad "14" smd roundrect (at 5.05 4.715) (size 2 0.55) (layers "F.Cu" "F.Paste" "F.Mask") (roundrect_rratio 0.25) (tstamp 001360a8-d833-4fe3-a56f-98bbdfa0c767))
  (pad "15" smd roundrect (at 5.05 3.445) (size 2 0.55) (layers "F.Cu" "F.Paste" "F.Mask") (roundrect_rratio 0.25) (tstamp 1f1f6502-c2bc-4941-870c-b28c2a9328cf))
  (pad "16" smd roundrect (at 5.05 2.175) (size 2 0.55) (layers "F.Cu" "F.Paste" "F.Mask") (roundrect_rratio 0.25) (tstamp f84a2215-6ff8-4ec8-8020-bb7bf30c8bc9))
  (pad "17" smd roundrect (at 5.05 0.905) (size 2 0.55) (layers "F.Cu" "F.Paste" "F.Mask") (roundrect_rratio 0.25) (tstamp e8c81e99-abbf-48b4-8b5a-9e312db52dd5))
  (pad "18" smd roundrect (at 5.05 -0.365) (size 2 0.55) (layers "F.Cu" "F.Paste" "F.Mask") (roundrect_rratio 0.25) (tstamp 3455175c-d479-411d-b6d0-baa046959898))
  (pad "19" smd roundrect (at 5.05 -1.635) (size 2 0.55) (layers "F.Cu" "F.Paste" "F.Mask") (roundrect_rratio 0.25) (tstamp 316c8f51-6690-4528-87ee-e0a706fefae9))
  (pad "20" smd roundrect (at 5.05 -2.905) (size 2 0.55) (layers "F.Cu" "F.Paste" "F.Mask") (roundrect_rratio 0.25) (tstamp 28812896-23a2-4cf6-b719-2d74dd72689d))
  (pad "21" smd roundrect (at 5.05 -4.175) (size 2 0.55) (layers "F.Cu" "F.Paste" "F.Mask") (roundrect_rratio 0.25) (tstamp c783d464-572e-4356-815f-2b760ff37b1f))
  (pad "22" smd roundrect (at 5.05 -5.445) (size 2 0.55) (layers "F.Cu" "F.Paste" "F.Mask") (roundrect_rratio 0.25) (tstamp 5425741b-9f6c-438c-abf8-49b8957c16e2))
  (pad "23" smd roundrect (at 5.05 -6.715) (size 2 0.55) (layers "F.Cu" "F.Paste" "F.Mask") (roundrect_rratio 0.25) (tstamp 3a5a3de6-4c84-46e0-81c5-684445ee1f3d))
  (pad "24" smd roundrect (at 5.05 -7.985) (size 2 0.55) (layers "F.Cu" "F.Paste" "F.Mask") (roundrect_rratio 0.25) (tstamp 2cd6ecf0-8dce-4304-a0ce-2197baa6286d))
)
