(kicad_sch (version 20230121) (generator eeschema)

  (uuid 8da6af82-9140-4d68-a0a5-692ff0cc9435)

  (paper "A4")

  (title_block
    (title "YM262-M prototype adapter")
    (date "2023-04-23")
    (rev "1")
    (company "Paweł Góralski'2023")
    (comment 1 "NOKTURNAL")
  )

  (lib_symbols
    (symbol "Connector:Conn_01x01_Pin" (pin_names (offset 1.016) hide) (in_bom yes) (on_board yes)
      (property "Reference" "J" (at 0 2.54 0)
        (effects (font (size 1.27 1.27)))
      )
      (property "Value" "Conn_01x01_Pin" (at 0 -2.54 0)
        (effects (font (size 1.27 1.27)))
      )
      (property "Footprint" "" (at 0 0 0)
        (effects (font (size 1.27 1.27)) hide)
      )
      (property "Datasheet" "~" (at 0 0 0)
        (effects (font (size 1.27 1.27)) hide)
      )
      (property "ki_locked" "" (at 0 0 0)
        (effects (font (size 1.27 1.27)))
      )
      (property "ki_keywords" "connector" (at 0 0 0)
        (effects (font (size 1.27 1.27)) hide)
      )
      (property "ki_description" "Generic connector, single row, 01x01, script generated" (at 0 0 0)
        (effects (font (size 1.27 1.27)) hide)
      )
      (property "ki_fp_filters" "Connector*:*_1x??_*" (at 0 0 0)
        (effects (font (size 1.27 1.27)) hide)
      )
      (symbol "Conn_01x01_Pin_1_1"
        (polyline
          (pts
            (xy 1.27 0)
            (xy 0.8636 0)
          )
          (stroke (width 0.1524) (type default))
          (fill (type none))
        )
        (rectangle (start 0.8636 0.127) (end 0 -0.127)
          (stroke (width 0.1524) (type default))
          (fill (type outline))
        )
        (pin passive line (at 5.08 0 180) (length 3.81)
          (name "Pin_1" (effects (font (size 1.27 1.27))))
          (number "1" (effects (font (size 1.27 1.27))))
        )
      )
    )
    (symbol "Connector:Conn_01x02_Pin" (pin_names (offset 1.016) hide) (in_bom yes) (on_board yes)
      (property "Reference" "J" (at 0 2.54 0)
        (effects (font (size 1.27 1.27)))
      )
      (property "Value" "Conn_01x02_Pin" (at 0 -5.08 0)
        (effects (font (size 1.27 1.27)))
      )
      (property "Footprint" "" (at 0 0 0)
        (effects (font (size 1.27 1.27)) hide)
      )
      (property "Datasheet" "~" (at 0 0 0)
        (effects (font (size 1.27 1.27)) hide)
      )
      (property "ki_locked" "" (at 0 0 0)
        (effects (font (size 1.27 1.27)))
      )
      (property "ki_keywords" "connector" (at 0 0 0)
        (effects (font (size 1.27 1.27)) hide)
      )
      (property "ki_description" "Generic connector, single row, 01x02, script generated" (at 0 0 0)
        (effects (font (size 1.27 1.27)) hide)
      )
      (property "ki_fp_filters" "Connector*:*_1x??_*" (at 0 0 0)
        (effects (font (size 1.27 1.27)) hide)
      )
      (symbol "Conn_01x02_Pin_1_1"
        (polyline
          (pts
            (xy 1.27 -2.54)
            (xy 0.8636 -2.54)
          )
          (stroke (width 0.1524) (type default))
          (fill (type none))
        )
        (polyline
          (pts
            (xy 1.27 0)
            (xy 0.8636 0)
          )
          (stroke (width 0.1524) (type default))
          (fill (type none))
        )
        (rectangle (start 0.8636 -2.413) (end 0 -2.667)
          (stroke (width 0.1524) (type default))
          (fill (type outline))
        )
        (rectangle (start 0.8636 0.127) (end 0 -0.127)
          (stroke (width 0.1524) (type default))
          (fill (type outline))
        )
        (pin passive line (at 5.08 0 180) (length 3.81)
          (name "Pin_1" (effects (font (size 1.27 1.27))))
          (number "1" (effects (font (size 1.27 1.27))))
        )
        (pin passive line (at 5.08 -2.54 180) (length 3.81)
          (name "Pin_2" (effects (font (size 1.27 1.27))))
          (number "2" (effects (font (size 1.27 1.27))))
        )
      )
    )
    (symbol "Connector:Conn_01x05_Pin" (pin_names (offset 1.016) hide) (in_bom yes) (on_board yes)
      (property "Reference" "J" (at 0 7.62 0)
        (effects (font (size 1.27 1.27)))
      )
      (property "Value" "Conn_01x05_Pin" (at 0 -7.62 0)
        (effects (font (size 1.27 1.27)))
      )
      (property "Footprint" "" (at 0 0 0)
        (effects (font (size 1.27 1.27)) hide)
      )
      (property "Datasheet" "~" (at 0 0 0)
        (effects (font (size 1.27 1.27)) hide)
      )
      (property "ki_locked" "" (at 0 0 0)
        (effects (font (size 1.27 1.27)))
      )
      (property "ki_keywords" "connector" (at 0 0 0)
        (effects (font (size 1.27 1.27)) hide)
      )
      (property "ki_description" "Generic connector, single row, 01x05, script generated" (at 0 0 0)
        (effects (font (size 1.27 1.27)) hide)
      )
      (property "ki_fp_filters" "Connector*:*_1x??_*" (at 0 0 0)
        (effects (font (size 1.27 1.27)) hide)
      )
      (symbol "Conn_01x05_Pin_1_1"
        (polyline
          (pts
            (xy 1.27 -5.08)
            (xy 0.8636 -5.08)
          )
          (stroke (width 0.1524) (type default))
          (fill (type none))
        )
        (polyline
          (pts
            (xy 1.27 -2.54)
            (xy 0.8636 -2.54)
          )
          (stroke (width 0.1524) (type default))
          (fill (type none))
        )
        (polyline
          (pts
            (xy 1.27 0)
            (xy 0.8636 0)
          )
          (stroke (width 0.1524) (type default))
          (fill (type none))
        )
        (polyline
          (pts
            (xy 1.27 2.54)
            (xy 0.8636 2.54)
          )
          (stroke (width 0.1524) (type default))
          (fill (type none))
        )
        (polyline
          (pts
            (xy 1.27 5.08)
            (xy 0.8636 5.08)
          )
          (stroke (width 0.1524) (type default))
          (fill (type none))
        )
        (rectangle (start 0.8636 -4.953) (end 0 -5.207)
          (stroke (width 0.1524) (type default))
          (fill (type outline))
        )
        (rectangle (start 0.8636 -2.413) (end 0 -2.667)
          (stroke (width 0.1524) (type default))
          (fill (type outline))
        )
        (rectangle (start 0.8636 0.127) (end 0 -0.127)
          (stroke (width 0.1524) (type default))
          (fill (type outline))
        )
        (rectangle (start 0.8636 2.667) (end 0 2.413)
          (stroke (width 0.1524) (type default))
          (fill (type outline))
        )
        (rectangle (start 0.8636 5.207) (end 0 4.953)
          (stroke (width 0.1524) (type default))
          (fill (type outline))
        )
        (pin passive line (at 5.08 5.08 180) (length 3.81)
          (name "Pin_1" (effects (font (size 1.27 1.27))))
          (number "1" (effects (font (size 1.27 1.27))))
        )
        (pin passive line (at 5.08 2.54 180) (length 3.81)
          (name "Pin_2" (effects (font (size 1.27 1.27))))
          (number "2" (effects (font (size 1.27 1.27))))
        )
        (pin passive line (at 5.08 0 180) (length 3.81)
          (name "Pin_3" (effects (font (size 1.27 1.27))))
          (number "3" (effects (font (size 1.27 1.27))))
        )
        (pin passive line (at 5.08 -2.54 180) (length 3.81)
          (name "Pin_4" (effects (font (size 1.27 1.27))))
          (number "4" (effects (font (size 1.27 1.27))))
        )
        (pin passive line (at 5.08 -5.08 180) (length 3.81)
          (name "Pin_5" (effects (font (size 1.27 1.27))))
          (number "5" (effects (font (size 1.27 1.27))))
        )
      )
    )
    (symbol "Connector:Conn_01x06_Pin" (pin_names (offset 1.016) hide) (in_bom yes) (on_board yes)
      (property "Reference" "J" (at 0 7.62 0)
        (effects (font (size 1.27 1.27)))
      )
      (property "Value" "Conn_01x06_Pin" (at 0 -10.16 0)
        (effects (font (size 1.27 1.27)))
      )
      (property "Footprint" "" (at 0 0 0)
        (effects (font (size 1.27 1.27)) hide)
      )
      (property "Datasheet" "~" (at 0 0 0)
        (effects (font (size 1.27 1.27)) hide)
      )
      (property "ki_locked" "" (at 0 0 0)
        (effects (font (size 1.27 1.27)))
      )
      (property "ki_keywords" "connector" (at 0 0 0)
        (effects (font (size 1.27 1.27)) hide)
      )
      (property "ki_description" "Generic connector, single row, 01x06, script generated" (at 0 0 0)
        (effects (font (size 1.27 1.27)) hide)
      )
      (property "ki_fp_filters" "Connector*:*_1x??_*" (at 0 0 0)
        (effects (font (size 1.27 1.27)) hide)
      )
      (symbol "Conn_01x06_Pin_1_1"
        (polyline
          (pts
            (xy 1.27 -7.62)
            (xy 0.8636 -7.62)
          )
          (stroke (width 0.1524) (type default))
          (fill (type none))
        )
        (polyline
          (pts
            (xy 1.27 -5.08)
            (xy 0.8636 -5.08)
          )
          (stroke (width 0.1524) (type default))
          (fill (type none))
        )
        (polyline
          (pts
            (xy 1.27 -2.54)
            (xy 0.8636 -2.54)
          )
          (stroke (width 0.1524) (type default))
          (fill (type none))
        )
        (polyline
          (pts
            (xy 1.27 0)
            (xy 0.8636 0)
          )
          (stroke (width 0.1524) (type default))
          (fill (type none))
        )
        (polyline
          (pts
            (xy 1.27 2.54)
            (xy 0.8636 2.54)
          )
          (stroke (width 0.1524) (type default))
          (fill (type none))
        )
        (polyline
          (pts
            (xy 1.27 5.08)
            (xy 0.8636 5.08)
          )
          (stroke (width 0.1524) (type default))
          (fill (type none))
        )
        (rectangle (start 0.8636 -7.493) (end 0 -7.747)
          (stroke (width 0.1524) (type default))
          (fill (type outline))
        )
        (rectangle (start 0.8636 -4.953) (end 0 -5.207)
          (stroke (width 0.1524) (type default))
          (fill (type outline))
        )
        (rectangle (start 0.8636 -2.413) (end 0 -2.667)
          (stroke (width 0.1524) (type default))
          (fill (type outline))
        )
        (rectangle (start 0.8636 0.127) (end 0 -0.127)
          (stroke (width 0.1524) (type default))
          (fill (type outline))
        )
        (rectangle (start 0.8636 2.667) (end 0 2.413)
          (stroke (width 0.1524) (type default))
          (fill (type outline))
        )
        (rectangle (start 0.8636 5.207) (end 0 4.953)
          (stroke (width 0.1524) (type default))
          (fill (type outline))
        )
        (pin passive line (at 5.08 5.08 180) (length 3.81)
          (name "Pin_1" (effects (font (size 1.27 1.27))))
          (number "1" (effects (font (size 1.27 1.27))))
        )
        (pin passive line (at 5.08 2.54 180) (length 3.81)
          (name "Pin_2" (effects (font (size 1.27 1.27))))
          (number "2" (effects (font (size 1.27 1.27))))
        )
        (pin passive line (at 5.08 0 180) (length 3.81)
          (name "Pin_3" (effects (font (size 1.27 1.27))))
          (number "3" (effects (font (size 1.27 1.27))))
        )
        (pin passive line (at 5.08 -2.54 180) (length 3.81)
          (name "Pin_4" (effects (font (size 1.27 1.27))))
          (number "4" (effects (font (size 1.27 1.27))))
        )
        (pin passive line (at 5.08 -5.08 180) (length 3.81)
          (name "Pin_5" (effects (font (size 1.27 1.27))))
          (number "5" (effects (font (size 1.27 1.27))))
        )
        (pin passive line (at 5.08 -7.62 180) (length 3.81)
          (name "Pin_6" (effects (font (size 1.27 1.27))))
          (number "6" (effects (font (size 1.27 1.27))))
        )
      )
    )
    (symbol "Connector:Conn_01x08_Pin" (pin_names (offset 1.016) hide) (in_bom yes) (on_board yes)
      (property "Reference" "J" (at 0 10.16 0)
        (effects (font (size 1.27 1.27)))
      )
      (property "Value" "Conn_01x08_Pin" (at 0 -12.7 0)
        (effects (font (size 1.27 1.27)))
      )
      (property "Footprint" "" (at 0 0 0)
        (effects (font (size 1.27 1.27)) hide)
      )
      (property "Datasheet" "~" (at 0 0 0)
        (effects (font (size 1.27 1.27)) hide)
      )
      (property "ki_locked" "" (at 0 0 0)
        (effects (font (size 1.27 1.27)))
      )
      (property "ki_keywords" "connector" (at 0 0 0)
        (effects (font (size 1.27 1.27)) hide)
      )
      (property "ki_description" "Generic connector, single row, 01x08, script generated" (at 0 0 0)
        (effects (font (size 1.27 1.27)) hide)
      )
      (property "ki_fp_filters" "Connector*:*_1x??_*" (at 0 0 0)
        (effects (font (size 1.27 1.27)) hide)
      )
      (symbol "Conn_01x08_Pin_1_1"
        (polyline
          (pts
            (xy 1.27 -10.16)
            (xy 0.8636 -10.16)
          )
          (stroke (width 0.1524) (type default))
          (fill (type none))
        )
        (polyline
          (pts
            (xy 1.27 -7.62)
            (xy 0.8636 -7.62)
          )
          (stroke (width 0.1524) (type default))
          (fill (type none))
        )
        (polyline
          (pts
            (xy 1.27 -5.08)
            (xy 0.8636 -5.08)
          )
          (stroke (width 0.1524) (type default))
          (fill (type none))
        )
        (polyline
          (pts
            (xy 1.27 -2.54)
            (xy 0.8636 -2.54)
          )
          (stroke (width 0.1524) (type default))
          (fill (type none))
        )
        (polyline
          (pts
            (xy 1.27 0)
            (xy 0.8636 0)
          )
          (stroke (width 0.1524) (type default))
          (fill (type none))
        )
        (polyline
          (pts
            (xy 1.27 2.54)
            (xy 0.8636 2.54)
          )
          (stroke (width 0.1524) (type default))
          (fill (type none))
        )
        (polyline
          (pts
            (xy 1.27 5.08)
            (xy 0.8636 5.08)
          )
          (stroke (width 0.1524) (type default))
          (fill (type none))
        )
        (polyline
          (pts
            (xy 1.27 7.62)
            (xy 0.8636 7.62)
          )
          (stroke (width 0.1524) (type default))
          (fill (type none))
        )
        (rectangle (start 0.8636 -10.033) (end 0 -10.287)
          (stroke (width 0.1524) (type default))
          (fill (type outline))
        )
        (rectangle (start 0.8636 -7.493) (end 0 -7.747)
          (stroke (width 0.1524) (type default))
          (fill (type outline))
        )
        (rectangle (start 0.8636 -4.953) (end 0 -5.207)
          (stroke (width 0.1524) (type default))
          (fill (type outline))
        )
        (rectangle (start 0.8636 -2.413) (end 0 -2.667)
          (stroke (width 0.1524) (type default))
          (fill (type outline))
        )
        (rectangle (start 0.8636 0.127) (end 0 -0.127)
          (stroke (width 0.1524) (type default))
          (fill (type outline))
        )
        (rectangle (start 0.8636 2.667) (end 0 2.413)
          (stroke (width 0.1524) (type default))
          (fill (type outline))
        )
        (rectangle (start 0.8636 5.207) (end 0 4.953)
          (stroke (width 0.1524) (type default))
          (fill (type outline))
        )
        (rectangle (start 0.8636 7.747) (end 0 7.493)
          (stroke (width 0.1524) (type default))
          (fill (type outline))
        )
        (pin passive line (at 5.08 7.62 180) (length 3.81)
          (name "Pin_1" (effects (font (size 1.27 1.27))))
          (number "1" (effects (font (size 1.27 1.27))))
        )
        (pin passive line (at 5.08 5.08 180) (length 3.81)
          (name "Pin_2" (effects (font (size 1.27 1.27))))
          (number "2" (effects (font (size 1.27 1.27))))
        )
        (pin passive line (at 5.08 2.54 180) (length 3.81)
          (name "Pin_3" (effects (font (size 1.27 1.27))))
          (number "3" (effects (font (size 1.27 1.27))))
        )
        (pin passive line (at 5.08 0 180) (length 3.81)
          (name "Pin_4" (effects (font (size 1.27 1.27))))
          (number "4" (effects (font (size 1.27 1.27))))
        )
        (pin passive line (at 5.08 -2.54 180) (length 3.81)
          (name "Pin_5" (effects (font (size 1.27 1.27))))
          (number "5" (effects (font (size 1.27 1.27))))
        )
        (pin passive line (at 5.08 -5.08 180) (length 3.81)
          (name "Pin_6" (effects (font (size 1.27 1.27))))
          (number "6" (effects (font (size 1.27 1.27))))
        )
        (pin passive line (at 5.08 -7.62 180) (length 3.81)
          (name "Pin_7" (effects (font (size 1.27 1.27))))
          (number "7" (effects (font (size 1.27 1.27))))
        )
        (pin passive line (at 5.08 -10.16 180) (length 3.81)
          (name "Pin_8" (effects (font (size 1.27 1.27))))
          (number "8" (effects (font (size 1.27 1.27))))
        )
      )
    )
    (symbol "YM_OPL:YM262-M 24SOP" (in_bom yes) (on_board yes)
      (property "Reference" "U" (at -5.08 -17.78 0)
        (effects (font (size 1.27 1.27)))
      )
      (property "Value" "YM262-M 24SOP" (at 0 16.51 0)
        (effects (font (size 1.27 1.27)))
      )
      (property "Footprint" "" (at -6.35 13.97 0)
        (effects (font (size 1.27 1.27)) hide)
      )
      (property "Datasheet" "" (at -6.35 13.97 0)
        (effects (font (size 1.27 1.27)) hide)
      )
      (symbol "YM262-M 24SOP_0_1"
        (rectangle (start -8.89 13.97) (end 10.16 -16.51)
          (stroke (width 0) (type default))
          (fill (type background))
        )
      )
      (symbol "YM262-M 24SOP_1_1"
        (pin power_in line (at -11.43 12.7 0) (length 2.54)
          (name "VDD" (effects (font (size 1.27 1.27))))
          (number "1" (effects (font (size 1.27 1.27))))
        )
        (pin bidirectional line (at -11.43 -10.16 0) (length 2.54)
          (name "D0" (effects (font (size 1.27 1.27))))
          (number "10" (effects (font (size 1.27 1.27))))
        )
        (pin bidirectional line (at -11.43 -12.7 0) (length 2.54)
          (name "D1" (effects (font (size 1.27 1.27))))
          (number "11" (effects (font (size 1.27 1.27))))
        )
        (pin power_out line (at -11.43 -15.24 0) (length 2.54)
          (name "VSS" (effects (font (size 1.27 1.27))))
          (number "12" (effects (font (size 1.27 1.27))))
        )
        (pin bidirectional line (at 12.7 -15.24 180) (length 2.54)
          (name "D2" (effects (font (size 1.27 1.27))))
          (number "13" (effects (font (size 1.27 1.27))))
        )
        (pin bidirectional line (at 12.7 -12.7 180) (length 2.54)
          (name "D3" (effects (font (size 1.27 1.27))))
          (number "14" (effects (font (size 1.27 1.27))))
        )
        (pin bidirectional line (at 12.7 -10.16 180) (length 2.54)
          (name "D4" (effects (font (size 1.27 1.27))))
          (number "15" (effects (font (size 1.27 1.27))))
        )
        (pin bidirectional line (at 12.7 -7.62 180) (length 2.54)
          (name "D5" (effects (font (size 1.27 1.27))))
          (number "16" (effects (font (size 1.27 1.27))))
        )
        (pin bidirectional line (at 12.7 -5.08 180) (length 2.54)
          (name "D6" (effects (font (size 1.27 1.27))))
          (number "17" (effects (font (size 1.27 1.27))))
        )
        (pin bidirectional line (at 12.7 -2.54 180) (length 2.54)
          (name "D7" (effects (font (size 1.27 1.27))))
          (number "18" (effects (font (size 1.27 1.27))))
        )
        (pin output line (at 12.7 0 180) (length 2.54)
          (name "SMPBD" (effects (font (size 1.27 1.27))))
          (number "19" (effects (font (size 1.27 1.27))))
        )
        (pin output line (at -11.43 10.16 0) (length 2.54)
          (name "/IRQ" (effects (font (size 1.27 1.27))))
          (number "2" (effects (font (size 1.27 1.27))))
        )
        (pin output line (at 12.7 2.54 180) (length 2.54)
          (name "SMPAC" (effects (font (size 1.27 1.27))))
          (number "20" (effects (font (size 1.27 1.27))))
        )
        (pin output line (at 12.7 5.08 180) (length 2.54)
          (name "DOAB" (effects (font (size 1.27 1.27))))
          (number "21" (effects (font (size 1.27 1.27))))
        )
        (pin output line (at 12.7 7.62 180) (length 2.54)
          (name "DOCD" (effects (font (size 1.27 1.27))))
          (number "22" (effects (font (size 1.27 1.27))))
        )
        (pin output line (at 12.7 10.16 180) (length 2.54)
          (name "SY" (effects (font (size 1.27 1.27))))
          (number "23" (effects (font (size 1.27 1.27))))
        )
        (pin input line (at 12.7 12.7 180) (length 2.54)
          (name "Master_clock" (effects (font (size 1.27 1.27))))
          (number "24" (effects (font (size 1.27 1.27))))
        )
        (pin input line (at -11.43 7.62 0) (length 2.54)
          (name "/IC" (effects (font (size 1.27 1.27))))
          (number "3" (effects (font (size 1.27 1.27))))
        )
        (pin input line (at -11.43 5.08 0) (length 2.54)
          (name "A0" (effects (font (size 1.27 1.27))))
          (number "4" (effects (font (size 1.27 1.27))))
        )
        (pin input line (at -11.43 2.54 0) (length 2.54)
          (name "A1" (effects (font (size 1.27 1.27))))
          (number "5" (effects (font (size 1.27 1.27))))
        )
        (pin input line (at -11.43 0 0) (length 2.54)
          (name "/WR" (effects (font (size 1.27 1.27))))
          (number "6" (effects (font (size 1.27 1.27))))
        )
        (pin input line (at -11.43 -2.54 0) (length 2.54)
          (name "/RD" (effects (font (size 1.27 1.27))))
          (number "7" (effects (font (size 1.27 1.27))))
        )
        (pin input line (at -11.43 -5.08 0) (length 2.54)
          (name "/CS" (effects (font (size 1.27 1.27))))
          (number "8" (effects (font (size 1.27 1.27))))
        )
        (pin no_connect line (at -11.43 -7.62 0) (length 2.54)
          (name "TEST" (effects (font (size 1.27 1.27))))
          (number "9" (effects (font (size 1.27 1.27))))
        )
      )
    )
  )


  (bus_entry (at 128.27 128.27) (size 2.54 2.54)
    (stroke (width 0) (type default))
    (uuid 066280a1-4ad1-48be-8909-d12b8d011769)
  )
  (bus_entry (at 128.27 123.19) (size 2.54 2.54)
    (stroke (width 0) (type default))
    (uuid 2abd96b0-b1a1-4295-bc85-d36679414da6)
  )
  (bus_entry (at 116.84 120.65) (size 2.54 -2.54)
    (stroke (width 0) (type default))
    (uuid 42cb0f5d-5cca-4085-aabc-9b1ebd0e3b2f)
  )
  (bus_entry (at 128.27 113.03) (size 2.54 2.54)
    (stroke (width 0) (type default))
    (uuid 4d72157e-0748-4fe8-b451-009e0ae8149a)
  )
  (bus_entry (at 116.84 135.89) (size 2.54 -2.54)
    (stroke (width 0) (type default))
    (uuid 54f51893-6336-4ca9-bc40-4940cc62650d)
  )
  (bus_entry (at 116.84 132.08) (size 2.54 -2.54)
    (stroke (width 0) (type default))
    (uuid 62ce9569-739a-4e18-a1ff-5192f4254e51)
  )
  (bus_entry (at 128.27 118.11) (size 2.54 2.54)
    (stroke (width 0) (type default))
    (uuid 64f657ff-6274-4817-81a2-cda3abd33f2d)
  )
  (bus_entry (at 116.84 139.7) (size 2.54 -2.54)
    (stroke (width 0) (type default))
    (uuid 65782f0d-f9da-4231-8495-76df935e4986)
  )
  (bus_entry (at 116.84 116.84) (size 2.54 -2.54)
    (stroke (width 0) (type default))
    (uuid 88f446cc-64a8-4911-a80d-25487d369611)
  )
  (bus_entry (at 128.27 110.49) (size 2.54 2.54)
    (stroke (width 0) (type default))
    (uuid 96f630dd-893c-4a7d-9787-83ef1e357b7c)
  )
  (bus_entry (at 116.84 128.27) (size 2.54 -2.54)
    (stroke (width 0) (type default))
    (uuid ab2beeda-a149-4092-8f3d-c98e3423ed07)
  )
  (bus_entry (at 128.27 125.73) (size 2.54 2.54)
    (stroke (width 0) (type default))
    (uuid b1efcca9-313f-44e2-9dcd-2b461d873434)
  )
  (bus_entry (at 116.84 124.46) (size 2.54 -2.54)
    (stroke (width 0) (type default))
    (uuid bd8d598c-42a9-42f1-8495-8e546720327b)
  )
  (bus_entry (at 116.84 113.03) (size 2.54 -2.54)
    (stroke (width 0) (type default))
    (uuid c29c2185-d923-4aa2-b380-e378affd2454)
  )
  (bus_entry (at 128.27 120.65) (size 2.54 2.54)
    (stroke (width 0) (type default))
    (uuid e2f63e63-fd27-4122-a914-90666ad9eca9)
  )
  (bus_entry (at 128.27 115.57) (size 2.54 2.54)
    (stroke (width 0) (type default))
    (uuid e9cdb4d1-3f76-48e0-b4ba-d1abc447231d)
  )

  (wire (pts (xy 102.87 129.54) (xy 107.95 129.54))
    (stroke (width 0) (type default))
    (uuid 008b90c7-4e22-4b55-8b37-7fbf4c66d6c0)
  )
  (wire (pts (xy 57.15 114.3) (xy 66.04 114.3))
    (stroke (width 0) (type default))
    (uuid 01201bd0-76f8-4bfe-b82b-72d31e7db364)
  )
  (bus (pts (xy 128.27 128.27) (xy 128.27 132.08))
    (stroke (width 0) (type default))
    (uuid 013e6ac6-c66b-4fdc-98d8-98c6673bb617)
  )

  (wire (pts (xy 66.04 111.76) (xy 66.04 114.3))
    (stroke (width 0) (type default))
    (uuid 0194e9df-d57c-4693-abb2-4fdcd881f71f)
  )
  (wire (pts (xy 130.81 130.81) (xy 146.05 130.81))
    (stroke (width 0) (type default))
    (uuid 02974803-a829-4839-9d1c-a673ce400fdd)
  )
  (wire (pts (xy 102.87 106.68) (xy 91.44 106.68))
    (stroke (width 0) (type default))
    (uuid 04df6d86-bb4b-4651-b49b-de2ad903195b)
  )
  (wire (pts (xy 95.25 86.36) (xy 95.25 76.2))
    (stroke (width 0) (type default))
    (uuid 07cdecc1-2bf0-4f6a-8917-83c8e88eb356)
  )
  (bus (pts (xy 119.38 129.54) (xy 119.38 133.35))
    (stroke (width 0) (type default))
    (uuid 08002922-bab3-4cc8-ad02-b6fdf57b7732)
  )

  (wire (pts (xy 129.54 93.98) (xy 139.7 93.98))
    (stroke (width 0) (type default))
    (uuid 086a5395-f9b8-498d-a951-42a0a8fd6b5f)
  )
  (wire (pts (xy 110.49 96.52) (xy 110.49 76.2))
    (stroke (width 0) (type default))
    (uuid 0a19788d-61b4-426c-8b04-864c8bcc5196)
  )
  (wire (pts (xy 130.81 128.27) (xy 146.05 128.27))
    (stroke (width 0) (type default))
    (uuid 0ce4a113-aad2-4f8f-b0fd-b4e5aa6727b9)
  )
  (wire (pts (xy 67.31 74.93) (xy 67.31 83.82))
    (stroke (width 0) (type default))
    (uuid 0d3508a0-7d96-4a15-bdf2-409689612919)
  )
  (wire (pts (xy 101.6 120.65) (xy 101.6 104.14))
    (stroke (width 0) (type default))
    (uuid 0ee5daf5-35ec-45f6-b1a2-8c0401fa1852)
  )
  (wire (pts (xy 130.81 115.57) (xy 146.05 115.57))
    (stroke (width 0) (type default))
    (uuid 0f6e4c3a-b13a-4663-98f4-1bded2cb75ca)
  )
  (wire (pts (xy 60.96 101.6) (xy 67.31 101.6))
    (stroke (width 0) (type default))
    (uuid 15bffb8a-1b46-4014-8ea7-33c768582c85)
  )
  (wire (pts (xy 99.06 116.84) (xy 116.84 116.84))
    (stroke (width 0) (type default))
    (uuid 18e15503-df5a-4c15-a38a-f6e616171cb8)
  )
  (bus (pts (xy 119.38 114.3) (xy 119.38 118.11))
    (stroke (width 0) (type default))
    (uuid 1b22e59e-cf64-4581-88e2-ffaf98f548d6)
  )

  (wire (pts (xy 106.68 93.98) (xy 106.68 76.2))
    (stroke (width 0) (type default))
    (uuid 210858ec-95f7-4dd2-858a-77b9bbb58568)
  )
  (wire (pts (xy 110.49 128.27) (xy 116.84 128.27))
    (stroke (width 0) (type default))
    (uuid 29614e26-6d94-48f7-8bf5-5b9f2d8bb9dc)
  )
  (wire (pts (xy 91.44 93.98) (xy 106.68 93.98))
    (stroke (width 0) (type default))
    (uuid 2c41052d-f5be-4bd9-bd2b-bfd90d43fd31)
  )
  (wire (pts (xy 62.23 109.22) (xy 62.23 118.11))
    (stroke (width 0) (type default))
    (uuid 2cfeb56b-0223-4f39-a36a-8218fc40421a)
  )
  (wire (pts (xy 113.03 134.62) (xy 113.03 132.08))
    (stroke (width 0) (type default))
    (uuid 3071cee7-abb4-413e-86e3-46be61c45315)
  )
  (bus (pts (xy 119.38 118.11) (xy 119.38 121.92))
    (stroke (width 0) (type default))
    (uuid 31abfb9b-34de-4d81-9279-66196f8f4220)
  )

  (wire (pts (xy 91.44 88.9) (xy 99.06 88.9))
    (stroke (width 0) (type default))
    (uuid 35e5b61b-a8a1-4ff7-91ae-5618592fe082)
  )
  (wire (pts (xy 91.44 76.2) (xy 91.44 83.82))
    (stroke (width 0) (type default))
    (uuid 363a0735-f36a-4ad0-a3a1-3f13409ba9dd)
  )
  (wire (pts (xy 63.5 86.36) (xy 63.5 74.93))
    (stroke (width 0) (type default))
    (uuid 3832dab8-1f5b-421a-a385-96959c046d72)
  )
  (bus (pts (xy 119.38 121.92) (xy 119.38 125.73))
    (stroke (width 0) (type default))
    (uuid 426873f5-c560-4fda-947a-2188ba13e47e)
  )

  (wire (pts (xy 129.54 72.39) (xy 139.7 72.39))
    (stroke (width 0) (type default))
    (uuid 451e7a36-3e6f-42fa-980e-5c210bb35c47)
  )
  (wire (pts (xy 129.54 80.01) (xy 139.7 80.01))
    (stroke (width 0) (type default))
    (uuid 480183e8-2d0c-4cef-979d-71ba2bc1fb2e)
  )
  (wire (pts (xy 129.54 77.47) (xy 139.7 77.47))
    (stroke (width 0) (type default))
    (uuid 4e6e6886-68f6-4a9a-a4f5-0426018ff8ad)
  )
  (wire (pts (xy 104.14 132.08) (xy 104.14 109.22))
    (stroke (width 0) (type default))
    (uuid 4fe887d4-0484-488b-943f-d2087e3d401e)
  )
  (wire (pts (xy 95.25 139.7) (xy 116.84 139.7))
    (stroke (width 0) (type default))
    (uuid 5070fa0e-2afa-4206-a452-05f0942b2a26)
  )
  (wire (pts (xy 130.81 113.03) (xy 146.05 113.03))
    (stroke (width 0) (type default))
    (uuid 50b666ba-05b4-4faa-ac6e-e045fc61fbc2)
  )
  (wire (pts (xy 107.95 124.46) (xy 116.84 124.46))
    (stroke (width 0) (type default))
    (uuid 5536f158-434e-482b-8fb6-232263d7553f)
  )
  (bus (pts (xy 128.27 118.11) (xy 128.27 120.65))
    (stroke (width 0) (type default))
    (uuid 5796aef8-5419-4d0f-be47-7dc886710e54)
  )

  (wire (pts (xy 129.54 99.06) (xy 139.7 99.06))
    (stroke (width 0) (type default))
    (uuid 5b6c5fa6-9cf9-4218-96f3-f30229634286)
  )
  (wire (pts (xy 60.96 91.44) (xy 67.31 91.44))
    (stroke (width 0) (type default))
    (uuid 5c72c571-49aa-43f7-8c5d-df775c0ce0da)
  )
  (wire (pts (xy 129.54 74.93) (xy 139.7 74.93))
    (stroke (width 0) (type default))
    (uuid 5cfcfccf-dba5-4e2b-95a8-f1b07f053124)
  )
  (wire (pts (xy 130.81 120.65) (xy 146.05 120.65))
    (stroke (width 0) (type default))
    (uuid 5d5a6578-33c8-479c-92e1-487572314ca8)
  )
  (wire (pts (xy 91.44 86.36) (xy 95.25 86.36))
    (stroke (width 0) (type default))
    (uuid 6310b208-6cf6-48f2-82e2-ff0f4b6c1db3)
  )
  (wire (pts (xy 66.04 111.76) (xy 67.31 111.76))
    (stroke (width 0) (type default))
    (uuid 64fbc1c0-d7c3-4ecd-9e0f-e24e23fce0e2)
  )
  (wire (pts (xy 130.81 125.73) (xy 146.05 125.73))
    (stroke (width 0) (type default))
    (uuid 6618f771-4a06-4cd2-8a8e-53ba01315371)
  )
  (bus (pts (xy 119.38 110.49) (xy 119.38 114.3))
    (stroke (width 0) (type default))
    (uuid 6a445527-c496-42cf-8456-37eb02c94dbd)
  )

  (wire (pts (xy 102.87 129.54) (xy 102.87 106.68))
    (stroke (width 0) (type default))
    (uuid 6befe47b-766e-417f-95d0-d4a6bfb01659)
  )
  (wire (pts (xy 105.41 134.62) (xy 113.03 134.62))
    (stroke (width 0) (type default))
    (uuid 6c6be218-f15b-4dfe-8b70-50bd6e47a7a9)
  )
  (wire (pts (xy 59.69 120.65) (xy 95.25 120.65))
    (stroke (width 0) (type default))
    (uuid 6f72157e-b2c1-48b7-9c59-67c75d1e2042)
  )
  (wire (pts (xy 113.03 132.08) (xy 116.84 132.08))
    (stroke (width 0) (type default))
    (uuid 70ea444a-11ea-428a-a700-444bf284a68d)
  )
  (wire (pts (xy 102.87 91.44) (xy 102.87 76.2))
    (stroke (width 0) (type default))
    (uuid 75cc78d6-680b-4b6d-8883-06bfd111aabe)
  )
  (wire (pts (xy 95.25 139.7) (xy 95.25 120.65))
    (stroke (width 0) (type default))
    (uuid 79f25102-2243-4125-8b27-5ae1f985e574)
  )
  (bus (pts (xy 128.27 115.57) (xy 128.27 118.11))
    (stroke (width 0) (type default))
    (uuid 7acc5f18-de76-4e2b-8def-9b848b9da65b)
  )

  (wire (pts (xy 96.52 113.03) (xy 116.84 113.03))
    (stroke (width 0) (type default))
    (uuid 7c124fc6-c3db-4cfa-a725-3e81715a0951)
  )
  (bus (pts (xy 119.38 133.35) (xy 119.38 137.16))
    (stroke (width 0) (type default))
    (uuid 7d6415c9-0326-43a4-be24-7130f63a61a4)
  )

  (wire (pts (xy 110.49 132.08) (xy 110.49 128.27))
    (stroke (width 0) (type default))
    (uuid 85c839e6-7d80-43ca-84e4-0f5ba5dda929)
  )
  (bus (pts (xy 128.27 113.03) (xy 128.27 115.57))
    (stroke (width 0) (type default))
    (uuid 86012cf0-f495-4ade-8896-db55b813219c)
  )

  (wire (pts (xy 104.14 132.08) (xy 110.49 132.08))
    (stroke (width 0) (type default))
    (uuid 8cc3e87a-ddbd-4109-8d6a-22929028a62f)
  )
  (wire (pts (xy 91.44 101.6) (xy 99.06 101.6))
    (stroke (width 0) (type default))
    (uuid 9403c324-411d-43fb-8aed-206a25e5f646)
  )
  (wire (pts (xy 60.96 96.52) (xy 67.31 96.52))
    (stroke (width 0) (type default))
    (uuid 9412a361-bd7b-4599-aaa5-af45104dc00a)
  )
  (wire (pts (xy 129.54 44.45) (xy 139.7 44.45))
    (stroke (width 0) (type default))
    (uuid 99b17c1d-cef2-4f80-a9f4-8d50795bc260)
  )
  (wire (pts (xy 60.96 93.98) (xy 67.31 93.98))
    (stroke (width 0) (type default))
    (uuid 9d69d0f8-b37f-447d-aadd-cf8edf1408b3)
  )
  (bus (pts (xy 128.27 110.49) (xy 128.27 113.03))
    (stroke (width 0) (type default))
    (uuid 9db9ee05-92ba-4b81-8040-63274b4f456b)
  )

  (wire (pts (xy 60.96 99.06) (xy 67.31 99.06))
    (stroke (width 0) (type default))
    (uuid 9fa5aad5-081f-4501-88f7-1447baf0b1d4)
  )
  (wire (pts (xy 129.54 54.61) (xy 139.7 54.61))
    (stroke (width 0) (type default))
    (uuid a3e598ca-4c70-41b4-9e6f-d4a1b0370c1f)
  )
  (wire (pts (xy 96.52 113.03) (xy 96.52 99.06))
    (stroke (width 0) (type default))
    (uuid a8d2110e-984d-4538-932f-763c324d2156)
  )
  (wire (pts (xy 105.41 111.76) (xy 91.44 111.76))
    (stroke (width 0) (type default))
    (uuid aa3146f9-0ebc-4bb0-8499-7353452fd0b1)
  )
  (wire (pts (xy 129.54 46.99) (xy 139.7 46.99))
    (stroke (width 0) (type default))
    (uuid abb3918d-674a-46a1-bd68-e997b6cca55f)
  )
  (wire (pts (xy 59.69 106.68) (xy 59.69 120.65))
    (stroke (width 0) (type default))
    (uuid ac6464fe-f6ed-4953-8885-2ccfc9b52f21)
  )
  (wire (pts (xy 67.31 109.22) (xy 62.23 109.22))
    (stroke (width 0) (type default))
    (uuid ad0ec928-b11f-4893-9e51-ec8955b0b104)
  )
  (wire (pts (xy 62.23 118.11) (xy 92.71 118.11))
    (stroke (width 0) (type default))
    (uuid b3f2cc31-8f2f-4611-b81e-ce40ee3c8b25)
  )
  (wire (pts (xy 105.41 134.62) (xy 105.41 111.76))
    (stroke (width 0) (type default))
    (uuid ba57dc77-2e98-41bf-a6ea-fc85df28c2a7)
  )
  (wire (pts (xy 99.06 88.9) (xy 99.06 76.2))
    (stroke (width 0) (type default))
    (uuid ba62988c-fcad-4eee-aebf-3c5de5701443)
  )
  (wire (pts (xy 129.54 101.6) (xy 139.7 101.6))
    (stroke (width 0) (type default))
    (uuid bd3f9369-c1c2-4e07-b55e-c1ae09494978)
  )
  (bus (pts (xy 119.38 125.73) (xy 119.38 129.54))
    (stroke (width 0) (type default))
    (uuid bdd83efd-26b8-4a53-a1c3-2669ee215ea9)
  )

  (wire (pts (xy 104.14 109.22) (xy 91.44 109.22))
    (stroke (width 0) (type default))
    (uuid be2d0088-b2f7-4f9c-a830-9bbeb2ba5625)
  )
  (bus (pts (xy 128.27 125.73) (xy 128.27 128.27))
    (stroke (width 0) (type default))
    (uuid be7e3c23-6593-4674-98b8-cb52d9a584f0)
  )

  (wire (pts (xy 99.06 116.84) (xy 99.06 101.6))
    (stroke (width 0) (type default))
    (uuid c1959f62-63bc-4cdb-a37a-5a22063ea2c3)
  )
  (bus (pts (xy 128.27 120.65) (xy 128.27 123.19))
    (stroke (width 0) (type default))
    (uuid c4b07d04-41d5-46b0-b360-9ec81e8ab125)
  )

  (wire (pts (xy 91.44 104.14) (xy 101.6 104.14))
    (stroke (width 0) (type default))
    (uuid c55c167a-1f1a-4f32-b3ae-25c6024b9f2b)
  )
  (wire (pts (xy 101.6 120.65) (xy 116.84 120.65))
    (stroke (width 0) (type default))
    (uuid c7ce6625-0fd6-49b2-ade0-fb2b39d09aeb)
  )
  (bus (pts (xy 128.27 123.19) (xy 128.27 125.73))
    (stroke (width 0) (type default))
    (uuid c8c424dd-61c1-4986-8bbb-3a587cfb749b)
  )

  (wire (pts (xy 129.54 82.55) (xy 139.7 82.55))
    (stroke (width 0) (type default))
    (uuid c965e298-7d46-45d6-abbb-77c685f11ba7)
  )
  (wire (pts (xy 129.54 96.52) (xy 139.7 96.52))
    (stroke (width 0) (type default))
    (uuid ca902e10-1165-4840-9d2c-2e7a92fa5f16)
  )
  (wire (pts (xy 129.54 104.14) (xy 139.7 104.14))
    (stroke (width 0) (type default))
    (uuid cd5a885d-92b3-4528-a1ad-69b52a8a71ee)
  )
  (wire (pts (xy 67.31 86.36) (xy 63.5 86.36))
    (stroke (width 0) (type default))
    (uuid ce3edbba-2ef4-4d71-aef1-a14ae2c5d978)
  )
  (wire (pts (xy 67.31 88.9) (xy 60.96 88.9))
    (stroke (width 0) (type default))
    (uuid d1b04df1-0c0a-48d0-83a2-4419c07f33a1)
  )
  (wire (pts (xy 91.44 96.52) (xy 110.49 96.52))
    (stroke (width 0) (type default))
    (uuid d576eafc-6e0f-4a00-9162-2b5e5600199f)
  )
  (wire (pts (xy 107.95 129.54) (xy 107.95 124.46))
    (stroke (width 0) (type default))
    (uuid d5830e49-b45a-4176-94cb-12dac8f85ec2)
  )
  (wire (pts (xy 92.71 135.89) (xy 92.71 118.11))
    (stroke (width 0) (type default))
    (uuid d9a87f23-7371-4770-8f56-edc502842694)
  )
  (wire (pts (xy 129.54 62.23) (xy 139.7 62.23))
    (stroke (width 0) (type default))
    (uuid e1ce5c2c-b7b3-4f04-a62f-256f1803ec5e)
  )
  (wire (pts (xy 130.81 118.11) (xy 146.05 118.11))
    (stroke (width 0) (type default))
    (uuid e49ddfad-faae-4d65-b93b-526bf5261140)
  )
  (wire (pts (xy 129.54 85.09) (xy 139.7 85.09))
    (stroke (width 0) (type default))
    (uuid e8c1385b-c694-44e9-9e28-3f729c6e0fb0)
  )
  (wire (pts (xy 130.81 123.19) (xy 146.05 123.19))
    (stroke (width 0) (type default))
    (uuid e9f799c3-19c4-44e2-b597-c689133607d4)
  )
  (wire (pts (xy 91.44 99.06) (xy 96.52 99.06))
    (stroke (width 0) (type default))
    (uuid f437df98-032e-4c71-bcbb-0c8683a429ff)
  )
  (wire (pts (xy 92.71 135.89) (xy 116.84 135.89))
    (stroke (width 0) (type default))
    (uuid f4c473e2-58c4-4a43-8003-7e4a1b4d4a6c)
  )
  (wire (pts (xy 67.31 106.68) (xy 59.69 106.68))
    (stroke (width 0) (type default))
    (uuid f77739b9-71d1-49ae-8a2f-c15b7a836271)
  )
  (wire (pts (xy 91.44 91.44) (xy 102.87 91.44))
    (stroke (width 0) (type default))
    (uuid fc37f869-596d-4f9a-b92f-7b634f6e3f63)
  )

  (label "D3" (at 110.49 128.27 0) (fields_autoplaced)
    (effects (font (size 1.27 1.27)) (justify left bottom))
    (uuid 03124ee4-4fbc-408e-a3c1-3c8a583fd6d4)
  )
  (label "D2" (at 133.35 125.73 0) (fields_autoplaced)
    (effects (font (size 1.27 1.27)) (justify left bottom))
    (uuid 039afa2c-c7ed-4a8d-822d-8546c2ef87f3)
  )
  (label "D5" (at 110.49 120.65 0) (fields_autoplaced)
    (effects (font (size 1.27 1.27)) (justify left bottom))
    (uuid 2c7b76ea-f053-4060-bacc-3c925dc8fbd7)
  )
  (label "D3" (at 133.35 123.19 0) (fields_autoplaced)
    (effects (font (size 1.27 1.27)) (justify left bottom))
    (uuid 482e41fa-4696-4d90-9f0c-2b3d7271f3e9)
  )
  (label "D6" (at 133.35 115.57 0) (fields_autoplaced)
    (effects (font (size 1.27 1.27)) (justify left bottom))
    (uuid 587ee61d-f15d-45b6-86b6-ccfa62d56627)
  )
  (label "D6" (at 110.49 116.84 0) (fields_autoplaced)
    (effects (font (size 1.27 1.27)) (justify left bottom))
    (uuid 60c0093d-1e0f-481b-a330-f2d64dc4d486)
  )
  (label "D1" (at 114.3 135.89 0) (fields_autoplaced)
    (effects (font (size 1.27 1.27)) (justify left bottom))
    (uuid 634f1a4d-32db-4af3-ad19-9064e7ed6169)
  )
  (label "D7" (at 110.49 113.03 0) (fields_autoplaced)
    (effects (font (size 1.27 1.27)) (justify left bottom))
    (uuid 6876a757-e829-4bec-b96d-ef6ee514483e)
  )
  (label "D4" (at 110.49 124.46 0) (fields_autoplaced)
    (effects (font (size 1.27 1.27)) (justify left bottom))
    (uuid 6db8b891-0025-4d68-be42-e71d8149a938)
  )
  (label "D5" (at 133.35 118.11 0) (fields_autoplaced)
    (effects (font (size 1.27 1.27)) (justify left bottom))
    (uuid 7dcba6b1-e9aa-4e0c-b901-cc52dc858581)
  )
  (label "D0" (at 133.35 130.81 0) (fields_autoplaced)
    (effects (font (size 1.27 1.27)) (justify left bottom))
    (uuid 8c036785-b52c-40d8-b248-50700c4e1a6e)
  )
  (label "D4" (at 133.35 120.65 0) (fields_autoplaced)
    (effects (font (size 1.27 1.27)) (justify left bottom))
    (uuid ba7fdd76-31ca-4b87-984c-cc0d58e6c502)
  )
  (label "D0" (at 114.3 139.7 0) (fields_autoplaced)
    (effects (font (size 1.27 1.27)) (justify left bottom))
    (uuid e89fdd50-e1d6-4248-8034-3e4857782bdf)
  )
  (label "D1" (at 133.35 128.27 0) (fields_autoplaced)
    (effects (font (size 1.27 1.27)) (justify left bottom))
    (uuid e9a30d5e-4ddc-4e83-9aa0-8c1843288aad)
  )
  (label "D7" (at 133.35 113.03 0) (fields_autoplaced)
    (effects (font (size 1.27 1.27)) (justify left bottom))
    (uuid ef268e58-711c-4b75-8452-6b2845f70175)
  )
  (label "D2" (at 114.3 132.08 0) (fields_autoplaced)
    (effects (font (size 1.27 1.27)) (justify left bottom))
    (uuid fad41ddf-639d-4a5b-b582-b738579d7760)
  )

  (global_label "VDD" (shape input) (at 129.54 46.99 180) (fields_autoplaced)
    (effects (font (size 1.27 1.27)) (justify right))
    (uuid 0452953b-9e69-45b7-9390-e46e2b281165)
    (property "Intersheetrefs" "${INTERSHEET_REFS}" (at 123.0056 46.99 0)
      (effects (font (size 1.27 1.27)) (justify right) hide)
    )
  )
  (global_label "SMPAC" (shape input) (at 129.54 96.52 180) (fields_autoplaced)
    (effects (font (size 1.27 1.27)) (justify right))
    (uuid 0d044ae4-137a-4f01-a96e-55d40a278ae6)
    (property "Intersheetrefs" "${INTERSHEET_REFS}" (at 120.3447 96.52 0)
      (effects (font (size 1.27 1.27)) (justify right) hide)
    )
  )
  (global_label "DOAB" (shape input) (at 102.87 76.2 90) (fields_autoplaced)
    (effects (font (size 1.27 1.27)) (justify left))
    (uuid 0d232a8c-0a35-44e5-9607-1756942ba5f2)
    (property "Intersheetrefs" "${INTERSHEET_REFS}" (at 102.87 68.3351 90)
      (effects (font (size 1.27 1.27)) (justify left) hide)
    )
  )
  (global_label "DOCD" (shape input) (at 129.54 101.6 180) (fields_autoplaced)
    (effects (font (size 1.27 1.27)) (justify right))
    (uuid 18d98ecc-ab0b-4516-b4cc-ff2d6e0d9caf)
    (property "Intersheetrefs" "${INTERSHEET_REFS}" (at 121.4937 101.6 0)
      (effects (font (size 1.27 1.27)) (justify right) hide)
    )
  )
  (global_label "RD" (shape input) (at 129.54 82.55 180) (fields_autoplaced)
    (effects (font (size 1.27 1.27)) (justify right))
    (uuid 1971533f-b2d1-427e-84df-3a95fde61b94)
    (property "Intersheetrefs" "${INTERSHEET_REFS}" (at 124.0942 82.55 0)
      (effects (font (size 1.27 1.27)) (justify right) hide)
    )
  )
  (global_label "A1" (shape input) (at 60.96 93.98 180) (fields_autoplaced)
    (effects (font (size 1.27 1.27)) (justify right))
    (uuid 2b0f15f1-5cff-4ef4-a3aa-69e76648a929)
    (property "Intersheetrefs" "${INTERSHEET_REFS}" (at 55.7561 93.98 0)
      (effects (font (size 1.27 1.27)) (justify right) hide)
    )
  )
  (global_label "WR" (shape input) (at 60.96 96.52 180) (fields_autoplaced)
    (effects (font (size 1.27 1.27)) (justify right))
    (uuid 37f59a5e-0354-48ac-9fbe-9ce653fd8e7f)
    (property "Intersheetrefs" "${INTERSHEET_REFS}" (at 55.3328 96.52 0)
      (effects (font (size 1.27 1.27)) (justify right) hide)
    )
  )
  (global_label "A0" (shape input) (at 60.96 91.44 180) (fields_autoplaced)
    (effects (font (size 1.27 1.27)) (justify right))
    (uuid 3afc6dc7-887b-4180-a7da-f332e00fc567)
    (property "Intersheetrefs" "${INTERSHEET_REFS}" (at 55.7561 91.44 0)
      (effects (font (size 1.27 1.27)) (justify right) hide)
    )
  )
  (global_label "VSS" (shape input) (at 57.15 114.3 180) (fields_autoplaced)
    (effects (font (size 1.27 1.27)) (justify right))
    (uuid 3cf223f5-8e30-417f-bab0-55fdbee334ad)
    (property "Intersheetrefs" "${INTERSHEET_REFS}" (at 50.7366 114.3 0)
      (effects (font (size 1.27 1.27)) (justify right) hide)
    )
  )
  (global_label "IC" (shape input) (at 60.96 88.9 180) (fields_autoplaced)
    (effects (font (size 1.27 1.27)) (justify right))
    (uuid 4672aa74-3b4a-4b22-8a84-c957d6117d18)
    (property "Intersheetrefs" "${INTERSHEET_REFS}" (at 56.1794 88.9 0)
      (effects (font (size 1.27 1.27)) (justify right) hide)
    )
  )
  (global_label "IRQ" (shape input) (at 63.5 74.93 90) (fields_autoplaced)
    (effects (font (size 1.27 1.27)) (justify left))
    (uuid 4c6029e4-1b25-44c2-878c-142ef8bffe5a)
    (property "Intersheetrefs" "${INTERSHEET_REFS}" (at 63.5 68.8189 90)
      (effects (font (size 1.27 1.27)) (justify left) hide)
    )
  )
  (global_label "SMPBD" (shape input) (at 110.49 76.2 90) (fields_autoplaced)
    (effects (font (size 1.27 1.27)) (justify left))
    (uuid 4cbd6e84-2b30-430e-9a2b-500f466fdcd7)
    (property "Intersheetrefs" "${INTERSHEET_REFS}" (at 110.49 66.8233 90)
      (effects (font (size 1.27 1.27)) (justify left) hide)
    )
  )
  (global_label "CS" (shape input) (at 129.54 85.09 180) (fields_autoplaced)
    (effects (font (size 1.27 1.27)) (justify right))
    (uuid 50dc0b2b-0dbb-4ab5-9c95-cfb8b528a91f)
    (property "Intersheetrefs" "${INTERSHEET_REFS}" (at 124.1547 85.09 0)
      (effects (font (size 1.27 1.27)) (justify right) hide)
    )
  )
  (global_label "RD" (shape input) (at 60.96 99.06 180) (fields_autoplaced)
    (effects (font (size 1.27 1.27)) (justify right))
    (uuid 641d1078-8d2a-496e-bfe3-841a4d85b3d0)
    (property "Intersheetrefs" "${INTERSHEET_REFS}" (at 55.5142 99.06 0)
      (effects (font (size 1.27 1.27)) (justify right) hide)
    )
  )
  (global_label "SMPAC" (shape input) (at 106.68 76.2 90) (fields_autoplaced)
    (effects (font (size 1.27 1.27)) (justify left))
    (uuid 648e85e1-099a-441e-9aea-25b00d3240c6)
    (property "Intersheetrefs" "${INTERSHEET_REFS}" (at 106.68 67.0047 90)
      (effects (font (size 1.27 1.27)) (justify left) hide)
    )
  )
  (global_label "WR" (shape input) (at 129.54 80.01 180) (fields_autoplaced)
    (effects (font (size 1.27 1.27)) (justify right))
    (uuid 72d17d5e-a558-4d4b-832f-ba8020f37419)
    (property "Intersheetrefs" "${INTERSHEET_REFS}" (at 123.9128 80.01 0)
      (effects (font (size 1.27 1.27)) (justify right) hide)
    )
  )
  (global_label "DOCD" (shape input) (at 99.06 76.2 90) (fields_autoplaced)
    (effects (font (size 1.27 1.27)) (justify left))
    (uuid 7ef2ade4-7378-43d7-8dcf-ae86a0fe1cab)
    (property "Intersheetrefs" "${INTERSHEET_REFS}" (at 99.06 68.1537 90)
      (effects (font (size 1.27 1.27)) (justify left) hide)
    )
  )
  (global_label "CLK" (shape input) (at 91.44 76.2 90) (fields_autoplaced)
    (effects (font (size 1.27 1.27)) (justify left))
    (uuid 84d8b2fc-98ca-4bab-bbe4-f91e5ccec54d)
    (property "Intersheetrefs" "${INTERSHEET_REFS}" (at 91.44 69.7261 90)
      (effects (font (size 1.27 1.27)) (justify left) hide)
    )
  )
  (global_label "VDD" (shape input) (at 67.31 74.93 90) (fields_autoplaced)
    (effects (font (size 1.27 1.27)) (justify left))
    (uuid a6e19db6-ab74-4968-88cf-39465967d484)
    (property "Intersheetrefs" "${INTERSHEET_REFS}" (at 67.31 68.3956 90)
      (effects (font (size 1.27 1.27)) (justify left) hide)
    )
  )
  (global_label "IC" (shape input) (at 129.54 72.39 180) (fields_autoplaced)
    (effects (font (size 1.27 1.27)) (justify right))
    (uuid a9b7628c-24ca-4e4d-90bc-b97e3eca9c8a)
    (property "Intersheetrefs" "${INTERSHEET_REFS}" (at 124.7594 72.39 0)
      (effects (font (size 1.27 1.27)) (justify right) hide)
    )
  )
  (global_label "IRQ" (shape input) (at 129.54 54.61 180) (fields_autoplaced)
    (effects (font (size 1.27 1.27)) (justify right))
    (uuid b6014154-855a-451f-af2f-af996f1a10cf)
    (property "Intersheetrefs" "${INTERSHEET_REFS}" (at 123.4289 54.61 0)
      (effects (font (size 1.27 1.27)) (justify right) hide)
    )
  )
  (global_label "CLK" (shape input) (at 129.54 62.23 180) (fields_autoplaced)
    (effects (font (size 1.27 1.27)) (justify right))
    (uuid b9fb665d-3d1a-41eb-8ecb-1d3b86c2a7a7)
    (property "Intersheetrefs" "${INTERSHEET_REFS}" (at 123.0661 62.23 0)
      (effects (font (size 1.27 1.27)) (justify right) hide)
    )
  )
  (global_label "DOAB" (shape input) (at 129.54 99.06 180) (fields_autoplaced)
    (effects (font (size 1.27 1.27)) (justify right))
    (uuid c8f4563c-1047-41f7-a1d6-a9eed254678b)
    (property "Intersheetrefs" "${INTERSHEET_REFS}" (at 121.6751 99.06 0)
      (effects (font (size 1.27 1.27)) (justify right) hide)
    )
  )
  (global_label "SMPBD" (shape input) (at 129.54 93.98 180) (fields_autoplaced)
    (effects (font (size 1.27 1.27)) (justify right))
    (uuid cb70998d-5bd0-40ca-99ea-3210b5b87d00)
    (property "Intersheetrefs" "${INTERSHEET_REFS}" (at 120.1633 93.98 0)
      (effects (font (size 1.27 1.27)) (justify right) hide)
    )
  )
  (global_label "SY" (shape input) (at 129.54 104.14 180) (fields_autoplaced)
    (effects (font (size 1.27 1.27)) (justify right))
    (uuid cce5e6f7-0f11-458a-9328-39e84c80300b)
    (property "Intersheetrefs" "${INTERSHEET_REFS}" (at 124.3361 104.14 0)
      (effects (font (size 1.27 1.27)) (justify right) hide)
    )
  )
  (global_label "VSS" (shape input) (at 129.54 44.45 180) (fields_autoplaced)
    (effects (font (size 1.27 1.27)) (justify right))
    (uuid d82dff56-a736-4874-bf16-1cb9086670c7)
    (property "Intersheetrefs" "${INTERSHEET_REFS}" (at 123.1266 44.45 0)
      (effects (font (size 1.27 1.27)) (justify right) hide)
    )
  )
  (global_label "A1" (shape input) (at 129.54 77.47 180) (fields_autoplaced)
    (effects (font (size 1.27 1.27)) (justify right))
    (uuid ec87412f-701b-4892-ac8b-fad2d9e98bc0)
    (property "Intersheetrefs" "${INTERSHEET_REFS}" (at 124.3361 77.47 0)
      (effects (font (size 1.27 1.27)) (justify right) hide)
    )
  )
  (global_label "A0" (shape input) (at 129.54 74.93 180) (fields_autoplaced)
    (effects (font (size 1.27 1.27)) (justify right))
    (uuid f2533a2a-d923-43ca-8a1c-76cb42e65b2e)
    (property "Intersheetrefs" "${INTERSHEET_REFS}" (at 124.3361 74.93 0)
      (effects (font (size 1.27 1.27)) (justify right) hide)
    )
  )
  (global_label "CS" (shape input) (at 60.96 101.6 180) (fields_autoplaced)
    (effects (font (size 1.27 1.27)) (justify right))
    (uuid f8e059ed-556d-4ae9-82ef-8033b38d9161)
    (property "Intersheetrefs" "${INTERSHEET_REFS}" (at 55.5747 101.6 0)
      (effects (font (size 1.27 1.27)) (justify right) hide)
    )
  )
  (global_label "SY" (shape input) (at 95.25 76.2 90) (fields_autoplaced)
    (effects (font (size 1.27 1.27)) (justify left))
    (uuid febd7959-1cfe-45b6-8d61-5179770f30cf)
    (property "Intersheetrefs" "${INTERSHEET_REFS}" (at 95.25 70.9961 90)
      (effects (font (size 1.27 1.27)) (justify left) hide)
    )
  )

  (symbol (lib_id "YM_OPL:YM262-M 24SOP") (at 78.74 96.52 0) (unit 1)
    (in_bom yes) (on_board yes) (dnp no) (fields_autoplaced)
    (uuid 0e691e47-c742-424f-939b-e709fe54a870)
    (property "Reference" "U1" (at 79.375 79.6671 0)
      (effects (font (size 1.27 1.27)))
    )
    (property "Value" "YM262-M 24SOP" (at 79.375 81.5881 0)
      (effects (font (size 1.27 1.27)))
    )
    (property "Footprint" "YM262-M:YM-262-M" (at 72.39 82.55 0)
      (effects (font (size 1.27 1.27)) hide)
    )
    (property "Datasheet" "" (at 72.39 82.55 0)
      (effects (font (size 1.27 1.27)) hide)
    )
    (pin "1" (uuid 5d30ed97-a742-4dac-916a-b0ddb01fa6de))
    (pin "10" (uuid 7985059e-6921-41ee-9cc8-547e086262e1))
    (pin "11" (uuid 7d4cb2cd-f00c-4c2b-904a-dcc34263afcf))
    (pin "12" (uuid 271c9944-4122-4d87-8594-1d6f35e3871b))
    (pin "13" (uuid a59c4234-60a8-4260-b4bf-96cb7feed2d3))
    (pin "14" (uuid 072aef09-cabb-43e2-84e0-2a6f57b99302))
    (pin "15" (uuid 48445b26-dd96-4e63-86f7-b5bd808583aa))
    (pin "16" (uuid 408a0ab9-1b42-44d5-a2b5-4319b4dd955f))
    (pin "17" (uuid 00e39db3-a56a-4f60-9700-3c5e1204efaf))
    (pin "18" (uuid 15fa989e-3803-4c14-8eaf-cd09976c06fe))
    (pin "19" (uuid 22e81ead-afd4-48b9-a9f4-9605b34d4998))
    (pin "2" (uuid d6c7f455-886d-4a63-8cbc-feba5aecd60b))
    (pin "20" (uuid 1271c855-50c8-4648-8841-e966435fd5c1))
    (pin "21" (uuid 6c564403-932a-41f0-9a7c-0551e998db8d))
    (pin "22" (uuid 4a011d52-3a38-4f96-a1f1-3cb308f45a8a))
    (pin "23" (uuid 22c770a4-9536-44ed-bc48-fb39f526e194))
    (pin "24" (uuid d179e2c9-952d-41bd-b42b-1972684ee483))
    (pin "3" (uuid 1dd939c6-123f-4167-8e5a-3dc2ecbaac55))
    (pin "4" (uuid b397bd60-0b2f-4b18-9217-6fa0ca677aa9))
    (pin "5" (uuid e3ce5000-84ba-40df-8123-690f33452b96))
    (pin "6" (uuid 211447ef-83d4-4bdb-abb3-e7ac6c76390c))
    (pin "7" (uuid 0d1836c9-7efa-49d5-a2fd-6e2de0af599d))
    (pin "8" (uuid 4b60f19c-4890-45c4-a0b0-8123421d2cde))
    (pin "9" (uuid 459881f0-99dd-49f7-a646-2f1f81710deb))
    (instances
      (project "Opl3ProtoAdapter"
        (path "/8da6af82-9140-4d68-a0a5-692ff0cc9435"
          (reference "U1") (unit 1)
        )
      )
    )
  )

  (symbol (lib_id "Connector:Conn_01x01_Pin") (at 144.78 62.23 180) (unit 1)
    (in_bom yes) (on_board yes) (dnp no)
    (uuid 3088fa4b-e5af-457d-8191-64124b1e9734)
    (property "Reference" "J5" (at 144.145 59.1439 0)
      (effects (font (size 1.27 1.27)))
    )
    (property "Value" "Master Clock connector" (at 142.24 63.5 0)
      (effects (font (size 1.27 1.27)))
    )
    (property "Footprint" "Connector_PinHeader_2.54mm:PinHeader_1x01_P2.54mm_Vertical" (at 144.78 62.23 0)
      (effects (font (size 1.27 1.27)) hide)
    )
    (property "Datasheet" "~" (at 144.78 62.23 0)
      (effects (font (size 1.27 1.27)) hide)
    )
    (pin "1" (uuid 89fd30e4-1521-455f-a96f-d8f8cddc1e24))
    (instances
      (project "Opl3ProtoAdapter"
        (path "/8da6af82-9140-4d68-a0a5-692ff0cc9435"
          (reference "J5") (unit 1)
        )
      )
    )
  )

  (symbol (lib_id "Connector:Conn_01x02_Pin") (at 144.78 46.99 180) (unit 1)
    (in_bom yes) (on_board yes) (dnp no) (fields_autoplaced)
    (uuid 369ad539-215f-435c-955b-56db28555f88)
    (property "Reference" "J6" (at 145.4912 45.0763 0)
      (effects (font (size 1.27 1.27)) (justify right))
    )
    (property "Value" "Power connector" (at 145.4912 46.9973 0)
      (effects (font (size 1.27 1.27)) (justify right))
    )
    (property "Footprint" "Connector_PinHeader_2.54mm:PinHeader_1x02_P2.54mm_Vertical" (at 144.78 46.99 0)
      (effects (font (size 1.27 1.27)) hide)
    )
    (property "Datasheet" "~" (at 144.78 46.99 0)
      (effects (font (size 1.27 1.27)) hide)
    )
    (pin "1" (uuid 3a862e46-a61a-42e8-82ad-d83c0edb3820))
    (pin "2" (uuid df54fb3b-6d48-48a6-8463-3338fdad4984))
    (instances
      (project "Opl3ProtoAdapter"
        (path "/8da6af82-9140-4d68-a0a5-692ff0cc9435"
          (reference "J6") (unit 1)
        )
      )
    )
  )

  (symbol (lib_id "Connector:Conn_01x08_Pin") (at 151.13 123.19 180) (unit 1)
    (in_bom yes) (on_board yes) (dnp no) (fields_autoplaced)
    (uuid 75b85684-94f8-4f68-a9aa-09f1411bebb5)
    (property "Reference" "J1" (at 151.8412 121.2763 0)
      (effects (font (size 1.27 1.27)) (justify right))
    )
    (property "Value" "Data bus connector" (at 151.8412 123.1973 0)
      (effects (font (size 1.27 1.27)) (justify right))
    )
    (property "Footprint" "Connector_PinHeader_2.54mm:PinHeader_1x08_P2.54mm_Vertical" (at 151.13 123.19 0)
      (effects (font (size 1.27 1.27)) hide)
    )
    (property "Datasheet" "~" (at 151.13 123.19 0)
      (effects (font (size 1.27 1.27)) hide)
    )
    (pin "1" (uuid bf48dbf1-cd20-455b-8848-a71745de18f2))
    (pin "2" (uuid 6c38cfdb-54de-4467-9c44-aad848ccb71e))
    (pin "3" (uuid c9a9f62e-f5d2-4b33-b1df-07d8433619d8))
    (pin "4" (uuid 1ecf7a31-5288-43dc-ac70-721a8644aeab))
    (pin "5" (uuid f30f0941-20b1-44e0-8930-6c694f420748))
    (pin "6" (uuid b9e9a4dc-2076-4fb8-88c1-6c552062cf9d))
    (pin "7" (uuid 84b81ec0-4c8d-49b9-a268-da5d1b0d67bf))
    (pin "8" (uuid 24abe748-01c6-4a12-8685-78ff0515921c))
    (instances
      (project "Opl3ProtoAdapter"
        (path "/8da6af82-9140-4d68-a0a5-692ff0cc9435"
          (reference "J1") (unit 1)
        )
      )
    )
  )

  (symbol (lib_id "Connector:Conn_01x05_Pin") (at 144.78 99.06 180) (unit 1)
    (in_bom yes) (on_board yes) (dnp no) (fields_autoplaced)
    (uuid 79fccc1b-768a-4dfb-aa5a-6827ebb9158d)
    (property "Reference" "J2" (at 145.4912 98.4163 0)
      (effects (font (size 1.27 1.27)) (justify right))
    )
    (property "Value" "DAC interface connector" (at 145.4912 100.3373 0)
      (effects (font (size 1.27 1.27)) (justify right))
    )
    (property "Footprint" "Connector_PinHeader_2.54mm:PinHeader_1x05_P2.54mm_Vertical" (at 144.78 99.06 0)
      (effects (font (size 1.27 1.27)) hide)
    )
    (property "Datasheet" "~" (at 144.78 99.06 0)
      (effects (font (size 1.27 1.27)) hide)
    )
    (pin "1" (uuid f1c17f4d-08b2-4a5d-a7ca-1c6e352c430e))
    (pin "2" (uuid 8f1f3ccb-79d0-46b7-864e-69bf9e6b69b9))
    (pin "3" (uuid 1bd8fcbd-d2ae-4dc7-aff5-8d19af08b6c9))
    (pin "4" (uuid 280f49b5-6762-4e6f-85b0-5da41a0e1b1f))
    (pin "5" (uuid 0813eab5-7966-4073-b30b-f4388071a5ab))
    (instances
      (project "Opl3ProtoAdapter"
        (path "/8da6af82-9140-4d68-a0a5-692ff0cc9435"
          (reference "J2") (unit 1)
        )
      )
    )
  )

  (symbol (lib_id "Connector:Conn_01x06_Pin") (at 144.78 80.01 180) (unit 1)
    (in_bom yes) (on_board yes) (dnp no)
    (uuid d3d62e10-2c55-4e6a-8fbc-3acaec52affe)
    (property "Reference" "J4" (at 145.4912 78.0963 0)
      (effects (font (size 1.27 1.27)) (justify right))
    )
    (property "Value" "YM262 Control connector" (at 127 88.9 0)
      (effects (font (size 1.27 1.27)) (justify right))
    )
    (property "Footprint" "Connector_PinHeader_2.54mm:PinHeader_1x06_P2.54mm_Vertical" (at 144.78 80.01 0)
      (effects (font (size 1.27 1.27)) hide)
    )
    (property "Datasheet" "~" (at 144.78 80.01 0)
      (effects (font (size 1.27 1.27)) hide)
    )
    (pin "1" (uuid 4818c683-db0a-4484-ad65-f0c0c1d03ced))
    (pin "2" (uuid e822466f-db28-49bb-b3bd-cee60a47aaf1))
    (pin "3" (uuid d5986943-bf76-436c-bbce-c5f055efa3fd))
    (pin "4" (uuid c373e03f-4225-4e1b-8b13-6f2072037ebf))
    (pin "5" (uuid b5696607-3e2d-41a8-9fd2-c5bf84c4842e))
    (pin "6" (uuid c3e2faae-e9e2-4922-a620-cce342e63b82))
    (instances
      (project "Opl3ProtoAdapter"
        (path "/8da6af82-9140-4d68-a0a5-692ff0cc9435"
          (reference "J4") (unit 1)
        )
      )
    )
  )

  (symbol (lib_id "Connector:Conn_01x01_Pin") (at 144.78 54.61 180) (unit 1)
    (in_bom yes) (on_board yes) (dnp no)
    (uuid fa9e3254-ac08-436d-b09c-11eb6111ed5f)
    (property "Reference" "J3" (at 144.145 51.5239 0)
      (effects (font (size 1.27 1.27)))
    )
    (property "Value" "IRQ connector" (at 142.24 55.88 0)
      (effects (font (size 1.27 1.27)))
    )
    (property "Footprint" "Connector_PinHeader_2.54mm:PinHeader_1x01_P2.54mm_Vertical" (at 144.78 54.61 0)
      (effects (font (size 1.27 1.27)) hide)
    )
    (property "Datasheet" "~" (at 144.78 54.61 0)
      (effects (font (size 1.27 1.27)) hide)
    )
    (pin "1" (uuid c4cd8919-a8f9-48f0-909a-bbc891f81455))
    (instances
      (project "Opl3ProtoAdapter"
        (path "/8da6af82-9140-4d68-a0a5-692ff0cc9435"
          (reference "J3") (unit 1)
        )
      )
    )
  )

  (sheet_instances
    (path "/" (page "1"))
  )
)
